<?xml version="1.0" encoding="utf-8"?>
<!-- Generator: Adobe Illustrator 15.0.0, SVG Export Plug-In . SVG Version: 6.00 Build 0)  -->
<!DOCTYPE svg PUBLIC "-//W3C//DTD SVG 1.1//EN" "http://www.w3.org/Graphics/SVG/1.1/DTD/svg11.dtd">
<svg version="1.1" xmlns="http://www.w3.org/2000/svg" xmlns:xlink="http://www.w3.org/1999/xlink" x="0px" y="0px" width="631px"
	 height="580px" viewBox="0 0 631 580" enable-background="new 0 0 631 580" xml:space="preserve">
<g id="Layer_1" display="none">
	<g display="inline">
		<rect x="397.277" y="63.94" fill="#5B5B5B" width="25.193" height="7.149"/>
		<path fill="#5B5B5B" d="M506.526,33.012c0,5.115,4.145,9.26,9.259,9.26c5.117,0,9.262-4.145,9.262-9.26
			c0-5.114-4.146-9.26-9.262-9.26C510.671,23.751,506.526,27.897,506.526,33.012"/>
		<g>
			<path fill="#5B5B5B" d="M473.399,109.538v5.036h7.215v-5.036h17.941V87.774h-41.512v21.764H473.399z M472.055,94.131
				c0,0.792-0.641,1.432-1.43,1.432c-0.79,0-1.434-0.64-1.434-1.432c0-0.79,0.644-1.431,1.434-1.431
				C471.414,92.7,472.055,93.341,472.055,94.131z M472.055,102.152c0,0.792-0.641,1.432-1.43,1.432c-0.79,0-1.434-0.64-1.434-1.432
				c0-0.791,0.644-1.432,1.434-1.432C471.414,100.72,472.055,101.361,472.055,102.152z M483.439,102.152
				c0-0.791,0.639-1.432,1.433-1.432c0.791,0,1.431,0.641,1.431,1.432c0,0.792-0.64,1.432-1.431,1.432
				C484.079,103.583,483.439,102.943,483.439,102.152z M483.439,94.131c0-0.79,0.639-1.431,1.433-1.431
				c0.791,0,1.431,0.641,1.431,1.431c0,0.792-0.64,1.432-1.431,1.432C484.079,95.563,483.439,94.922,483.439,94.131z
				 M476.213,102.152c0-0.791,0.64-1.432,1.431-1.432c0.79,0,1.429,0.641,1.429,1.432c0,0.792-0.639,1.432-1.429,1.432
				C476.853,103.583,476.213,102.943,476.213,102.152z M476.213,94.131c0-0.79,0.64-1.431,1.431-1.431
				c0.79,0,1.429,0.641,1.429,1.431c0,0.792-0.639,1.432-1.429,1.432C476.853,95.563,476.213,94.922,476.213,94.131z"/>
			<polygon fill="#5B5B5B" points="503.986,82.733 503.986,114.574 481.607,114.574 481.607,111.139 500.108,111.139 
				500.108,86.174 455.495,86.174 455.495,111.139 472.403,111.139 472.403,114.574 451.614,114.574 451.614,82.733 			"/>
		</g>
		<g>
			<g>
				<path fill="#5B5B5B" d="M449.256,26.095c0-4.737,3.854-8.591,8.591-8.591c4.735,0,8.589,3.854,8.589,8.591
					c0,4.738-3.854,8.59-8.589,8.59C453.11,34.686,449.256,30.833,449.256,26.095z M452.804,26.095c0,2.781,2.263,5.043,5.043,5.043
					c2.779,0,5.042-2.262,5.042-5.043c0-2.781-2.263-5.043-5.042-5.043C455.067,21.052,452.804,23.314,452.804,26.095z"/>
			</g>
		</g>
		<g>
			<g>
				<path fill="#5B5B5B" d="M511.52,108.427c0-4.737,3.854-8.591,8.592-8.591c4.737,0,8.59,3.854,8.59,8.591
					s-3.853,8.589-8.59,8.589C515.374,117.017,511.52,113.164,511.52,108.427z M515.068,108.427c0,2.78,2.264,5.042,5.044,5.042
					s5.042-2.262,5.042-5.042c0-2.781-2.262-5.043-5.042-5.043S515.068,105.646,515.068,108.427z"/>
			</g>
		</g>
		<path fill="#5B5B5B" d="M422.47,89.129h17.963v14.222c0,12.527,8.537,22.719,19.034,22.719h58.864
			c10.496,0,19.035-10.192,19.035-22.719V32.455c0-12.528-8.539-22.72-19.035-22.72h-58.864c-10.497,0-19.034,10.191-19.034,22.72
			v14.787H422.47V89.129z M444.42,33.975c0-10.938,4.835-19.836,16.309-19.836h56.339c10.946,0,16.309,8.898,16.309,19.836v67.856
			c0,10.937-5.616,19.835-16.309,19.835h-56.339c-11.473,0-16.309-8.898-16.309-19.835V33.975z M426.573,51.984h13.86v32.393h-13.86
			V51.984z"/>
	</g>
	<g display="inline">
		<g>
			<path fill="#5B5B5B" d="M415.426,205.639c5.06,0,9.176,4.116,9.176,9.177c0,5.06-4.116,9.176-9.176,9.176
				c-5.061,0-9.177-4.116-9.177-9.176C406.249,209.755,410.365,205.639,415.426,205.639z M415.426,220.203
				c2.968,0,5.386-2.416,5.386-5.387c0-2.97-2.418-5.386-5.386-5.386c-2.971,0-5.386,2.416-5.386,5.386
				C410.04,217.787,412.455,220.203,415.426,220.203z"/>
		</g>
		<g>
			<path fill="#5B5B5B" d="M212.499,205.639c5.06,0,9.177,4.116,9.177,9.177c0,5.06-4.118,9.176-9.177,9.176
				c-5.061,0-9.177-4.116-9.177-9.176C203.321,209.755,207.438,205.639,212.499,205.639z M212.499,220.203
				c2.97,0,5.386-2.416,5.386-5.387c0-2.97-2.416-5.386-5.386-5.386s-5.386,2.416-5.386,5.386
				C207.112,217.787,209.528,220.203,212.499,220.203z"/>
		</g>
		<path fill="#5B5B5B" d="M415.426,416.897c5.06,0,9.176,4.116,9.176,9.175c0,5.061-4.116,9.177-9.176,9.177
			c-5.061,0-9.177-4.117-9.177-9.177C406.249,421.013,410.365,416.897,415.426,416.897z M415.426,431.459
			c2.968,0,5.386-2.417,5.386-5.387c0-2.969-2.418-5.386-5.386-5.386c-2.971,0-5.386,2.417-5.386,5.386
			C410.04,429.042,412.455,431.459,415.426,431.459z"/>
		<path fill="#5B5B5B" d="M212.499,416.897c5.06,0,9.177,4.116,9.177,9.175c0,5.061-4.118,9.177-9.177,9.177
			c-5.061,0-9.177-4.117-9.177-9.177C203.321,421.013,207.438,416.897,212.499,416.897z M212.499,431.459
			c2.97,0,5.386-2.417,5.386-5.387c0-2.969-2.416-5.386-5.386-5.386s-5.386,2.417-5.386,5.386
			C207.112,429.042,209.528,431.459,212.499,431.459z"/>
		<path fill="#5B5B5B" d="M241.495,421.063c0-2.939,2.383-5.323,5.324-5.323c2.941,0,5.326,2.384,5.326,5.323
			c0,2.941-2.384,5.327-5.326,5.327C243.878,426.39,241.495,424.005,241.495,421.063"/>
		<path fill="#5B5B5B" d="M256.45,421.063c0-2.939,2.385-5.323,5.325-5.323c2.941,0,5.327,2.384,5.327,5.323
			c0,2.941-2.386,5.327-5.327,5.327C258.835,426.39,256.45,424.005,256.45,421.063"/>
		<g>
			<path fill="#5B5B5B" d="M364.81,353.278c3.76,0,6.818,3.061,6.818,6.819c0,3.761-3.058,6.82-6.818,6.82s-6.818-3.059-6.818-6.82
				C357.992,356.339,361.049,353.278,364.81,353.278z"/>
		</g>
		<path fill="#5B5B5B" d="M209.346,444.357h214.018c9.608,0,17.425-7.819,17.425-17.428V212.912c0-9.609-7.817-17.424-17.425-17.424
			H209.346c-9.61,0-17.426,7.815-17.426,17.424v214.018C191.92,436.538,199.736,444.357,209.346,444.357z M349.949,441.971h-33.924
			v-11.665h33.924V441.971z M349.949,428.647h-33.595V401.97h33.595V428.647z M323.745,400.742v-3.981h18.195v3.981H323.745z
			 M196.687,212.912c0-6.98,5.678-12.658,12.659-12.658h214.018c6.979,0,12.658,5.678,12.658,12.658v214.018
			c0,6.979-5.679,12.658-12.658,12.658h-70.522v-48.768h-40.097v48.768H209.346c-6.981,0-12.659-5.678-12.659-12.658V212.912z"/>
		<g>
			<path fill="#5B5B5B" d="M420.68,245.47h-22.034v42.029h22.034v-18.165h5.1v-7.306h-5.1V245.47z M405.083,275.093
				c-0.802,0-1.451-0.649-1.451-1.449c0-0.799,0.648-1.448,1.451-1.448c0.798,0,1.447,0.649,1.447,1.448
				C406.531,274.443,405.882,275.093,405.083,275.093z M405.083,267.777c-0.802,0-1.451-0.648-1.451-1.452
				c0-0.799,0.648-1.449,1.451-1.449c0.798,0,1.447,0.65,1.447,1.449C406.531,267.128,405.882,267.777,405.083,267.777z
				 M405.083,260.668c-0.802,0-1.451-0.65-1.451-1.45s0.648-1.448,1.451-1.448c0.798,0,1.447,0.648,1.447,1.448
				S405.882,260.668,405.083,260.668z M413.203,275.093c-0.8,0-1.453-0.649-1.453-1.449c0-0.799,0.653-1.448,1.453-1.448
				c0.8,0,1.45,0.649,1.45,1.448C414.652,274.443,414.003,275.093,413.203,275.093z M413.203,267.777
				c-0.8,0-1.453-0.648-1.453-1.452c0-0.799,0.653-1.449,1.453-1.449c0.8,0,1.45,0.65,1.45,1.449
				C414.652,267.128,414.003,267.777,413.203,267.777z M413.203,260.668c-0.8,0-1.453-0.65-1.453-1.45s0.653-1.448,1.453-1.448
				c0.8,0,1.45,0.648,1.45,1.448S414.003,260.668,413.203,260.668z"/>
			<polygon fill="#5B5B5B" points="425.779,292.996 425.779,270.341 422.3,270.341 422.3,289.069 397.026,289.069 397.026,243.9 
				422.3,243.9 422.3,261.021 425.779,261.021 425.779,239.973 393.542,239.973 393.542,292.996 			"/>
		</g>
		<g>
			<path fill="#5B5B5B" d="M420.68,301.967h-22.034v42.027h22.034V325.83h5.1v-7.303h-5.1V301.967z M405.083,331.59
				c-0.802,0-1.451-0.651-1.451-1.451c0-0.801,0.648-1.447,1.451-1.447c0.798,0,1.447,0.646,1.447,1.447
				C406.531,330.939,405.882,331.59,405.083,331.59z M405.083,324.271c-0.802,0-1.451-0.648-1.451-1.448
				c0-0.799,0.648-1.45,1.451-1.45c0.798,0,1.447,0.65,1.447,1.45C406.531,323.623,405.882,324.271,405.083,324.271z
				 M405.083,317.163c-0.802,0-1.451-0.648-1.451-1.448c0-0.799,0.648-1.449,1.451-1.449c0.798,0,1.447,0.65,1.447,1.449
				C406.531,316.515,405.882,317.163,405.083,317.163z M413.203,331.59c-0.8,0-1.453-0.651-1.453-1.451
				c0-0.801,0.653-1.447,1.453-1.447c0.8,0,1.45,0.646,1.45,1.447C414.652,330.939,414.003,331.59,413.203,331.59z M413.203,324.271
				c-0.8,0-1.453-0.648-1.453-1.448c0-0.799,0.653-1.45,1.453-1.45c0.8,0,1.45,0.65,1.45,1.45
				C414.652,323.623,414.003,324.271,413.203,324.271z M413.203,317.163c-0.8,0-1.453-0.648-1.453-1.448
				c0-0.799,0.653-1.449,1.453-1.449c0.8,0,1.45,0.65,1.45,1.449C414.652,316.515,414.003,317.163,413.203,317.163z"/>
			<polygon fill="#5B5B5B" points="425.779,349.492 425.779,326.837 422.3,326.837 422.3,345.566 397.026,345.566 397.026,300.396 
				422.3,300.396 422.3,317.52 425.779,317.52 425.779,296.468 393.542,296.468 393.542,349.492 			"/>
		</g>
		<g>
			<polygon fill="#5B5B5B" points="425.779,406.024 425.779,383.369 422.3,383.369 422.3,402.097 397.026,402.097 397.026,356.928 
				422.3,356.928 422.3,374.05 425.779,374.05 425.779,353 393.542,353 393.542,406.024 			"/>
			<path fill="#5B5B5B" d="M420.68,358.499h-22.034v42.028h22.034v-18.166h5.1v-7.304h-5.1V358.499z M405.083,388.122
				c-0.802,0-1.451-0.65-1.451-1.45c0-0.801,0.648-1.448,1.451-1.448c0.798,0,1.447,0.647,1.447,1.448
				C406.531,387.471,405.882,388.122,405.083,388.122z M405.083,380.803c-0.802,0-1.451-0.647-1.451-1.448
				c0-0.8,0.648-1.45,1.451-1.45c0.798,0,1.447,0.65,1.447,1.45C406.531,380.155,405.882,380.803,405.083,380.803z M405.083,373.695
				c-0.802,0-1.451-0.648-1.451-1.448c0-0.801,0.648-1.449,1.451-1.449c0.798,0,1.447,0.648,1.447,1.449
				C406.531,373.047,405.882,373.695,405.083,373.695z M413.203,388.122c-0.8,0-1.453-0.65-1.453-1.45
				c0-0.801,0.653-1.448,1.453-1.448c0.8,0,1.45,0.647,1.45,1.448C414.652,387.471,414.003,388.122,413.203,388.122z
				 M413.203,380.803c-0.8,0-1.453-0.647-1.453-1.448c0-0.8,0.653-1.45,1.453-1.45c0.8,0,1.45,0.65,1.45,1.45
				C414.652,380.155,414.003,380.803,413.203,380.803z M413.203,373.695c-0.8,0-1.453-0.648-1.453-1.448
				c0-0.801,0.653-1.449,1.453-1.449c0.8,0,1.45,0.648,1.45,1.449C414.652,373.047,414.003,373.695,413.203,373.695z"/>
		</g>
		<g>
			<path fill="#5B5B5B" d="M210.085,287.499h22.035V245.47h-22.035v16.558h-5.098v7.306h5.098V287.499z M225.683,257.77
				c0.801,0,1.45,0.648,1.45,1.448s-0.648,1.45-1.45,1.45c-0.799,0-1.446-0.65-1.446-1.45S224.883,257.77,225.683,257.77z
				 M225.683,264.876c0.801,0,1.45,0.65,1.45,1.449c0,0.803-0.648,1.452-1.45,1.452c-0.799,0-1.446-0.648-1.446-1.452
				C224.236,265.526,224.883,264.876,225.683,264.876z M225.683,272.195c0.801,0,1.45,0.649,1.45,1.448
				c0,0.8-0.648,1.449-1.45,1.449c-0.799,0-1.446-0.649-1.446-1.449C224.236,272.844,224.883,272.195,225.683,272.195z
				 M217.562,257.77c0.801,0,1.451,0.648,1.451,1.448s-0.65,1.45-1.451,1.45c-0.801,0-1.448-0.65-1.448-1.45
				S216.761,257.77,217.562,257.77z M217.562,264.876c0.801,0,1.451,0.65,1.451,1.449c0,0.803-0.65,1.452-1.451,1.452
				c-0.801,0-1.448-0.648-1.448-1.452C216.114,265.526,216.761,264.876,217.562,264.876z M217.562,272.195
				c0.801,0,1.451,0.649,1.451,1.448c0,0.8-0.65,1.449-1.451,1.449c-0.801,0-1.448-0.649-1.448-1.449
				C216.114,272.844,216.761,272.195,217.562,272.195z"/>
			<polygon fill="#5B5B5B" points="237.224,292.996 237.224,239.973 204.987,239.973 204.987,261.021 208.465,261.021 
				208.465,243.9 233.74,243.9 233.74,289.069 208.465,289.069 208.465,270.341 204.987,270.341 204.987,292.996 			"/>
		</g>
		<g>
			<path fill="#5B5B5B" d="M266.553,215.668v22.034h42.027v-22.034h-16.558v-5.1h-7.305v5.1H266.553z M296.28,231.265
				c0,0.802-0.648,1.45-1.448,1.45c-0.802,0-1.449-0.648-1.449-1.45c0-0.8,0.646-1.446,1.449-1.446
				C295.632,229.819,296.28,230.465,296.28,231.265z M289.174,231.265c0,0.802-0.651,1.45-1.451,1.45c-0.802,0-1.45-0.648-1.45-1.45
				c0-0.8,0.648-1.446,1.45-1.446C288.523,229.819,289.174,230.465,289.174,231.265z M281.854,231.265
				c0,0.802-0.647,1.45-1.447,1.45s-1.449-0.648-1.449-1.45c0-0.8,0.649-1.446,1.449-1.446S281.854,230.465,281.854,231.265z
				 M296.28,223.145c0,0.801-0.648,1.451-1.448,1.451c-0.802,0-1.449-0.65-1.449-1.451c0-0.8,0.646-1.449,1.449-1.449
				C295.632,221.696,296.28,222.345,296.28,223.145z M289.174,223.145c0,0.801-0.651,1.451-1.451,1.451
				c-0.802,0-1.45-0.65-1.45-1.451c0-0.8,0.648-1.449,1.45-1.449C288.523,221.696,289.174,222.345,289.174,223.145z
				 M281.854,223.145c0,0.801-0.647,1.451-1.447,1.451s-1.449-0.65-1.449-1.451c0-0.8,0.649-1.449,1.449-1.449
				S281.854,222.345,281.854,223.145z"/>
			<polygon fill="#5B5B5B" points="261.055,242.807 314.078,242.807 314.078,210.569 293.027,210.569 293.027,214.048 
				310.15,214.048 310.15,239.323 264.981,239.323 264.981,214.048 283.708,214.048 283.708,210.569 261.055,210.569 			"/>
		</g>
		<g>
			<path fill="#5B5B5B" d="M323.392,215.668v22.034h42.026v-22.034H348.86v-5.1h-7.304v5.1H323.392z M353.12,231.265
				c0,0.802-0.649,1.45-1.448,1.45c-0.8,0-1.448-0.648-1.448-1.45c0-0.8,0.648-1.446,1.448-1.446
				C352.471,229.819,353.12,230.465,353.12,231.265z M346.012,231.265c0,0.802-0.649,1.45-1.449,1.45
				c-0.803,0-1.451-0.648-1.451-1.45c0-0.8,0.648-1.446,1.451-1.446C345.363,229.819,346.012,230.465,346.012,231.265z
				 M338.693,231.265c0,0.802-0.647,1.45-1.448,1.45c-0.8,0-1.449-0.648-1.449-1.45c0-0.8,0.649-1.446,1.449-1.446
				C338.046,229.819,338.693,230.465,338.693,231.265z M353.12,223.145c0,0.801-0.649,1.451-1.448,1.451
				c-0.8,0-1.448-0.65-1.448-1.451c0-0.8,0.648-1.449,1.448-1.449C352.471,221.696,353.12,222.345,353.12,223.145z M346.012,223.145
				c0,0.801-0.649,1.451-1.449,1.451c-0.803,0-1.451-0.65-1.451-1.451c0-0.8,0.648-1.449,1.451-1.449
				C345.363,221.696,346.012,222.345,346.012,223.145z M338.693,223.145c0,0.801-0.647,1.451-1.448,1.451
				c-0.8,0-1.449-0.65-1.449-1.451c0-0.8,0.649-1.449,1.449-1.449C338.046,221.696,338.693,222.345,338.693,223.145z"/>
			<polygon fill="#5B5B5B" points="317.894,242.807 370.917,242.807 370.917,210.569 349.866,210.569 349.866,214.048 
				366.989,214.048 366.989,239.323 321.82,239.323 321.82,214.048 340.547,214.048 340.547,210.569 317.894,210.569 			"/>
		</g>
		<g>
			<path fill="#5B5B5B" d="M210.085,343.995h22.035v-42.027h-22.035v16.559h-5.098v7.303h5.098V343.995z M225.683,314.266
				c0.801,0,1.45,0.65,1.45,1.449c0,0.8-0.648,1.448-1.45,1.448c-0.799,0-1.446-0.648-1.446-1.448
				C224.236,314.916,224.883,314.266,225.683,314.266z M225.683,321.374c0.801,0,1.45,0.65,1.45,1.45c0,0.8-0.648,1.448-1.45,1.448
				c-0.799,0-1.446-0.648-1.446-1.448C224.236,322.024,224.883,321.374,225.683,321.374z M225.683,328.692
				c0.801,0,1.45,0.646,1.45,1.447c0,0.8-0.648,1.451-1.45,1.451c-0.799,0-1.446-0.651-1.446-1.451
				C224.236,329.339,224.883,328.692,225.683,328.692z M217.562,314.266c0.801,0,1.451,0.65,1.451,1.449
				c0,0.8-0.65,1.448-1.451,1.448c-0.801,0-1.448-0.648-1.448-1.448C216.114,314.916,216.761,314.266,217.562,314.266z
				 M217.562,321.374c0.801,0,1.451,0.65,1.451,1.45c0,0.8-0.65,1.448-1.451,1.448c-0.801,0-1.448-0.648-1.448-1.448
				C216.114,322.024,216.761,321.374,217.562,321.374z M217.562,328.692c0.801,0,1.451,0.646,1.451,1.447
				c0,0.8-0.65,1.451-1.451,1.451c-0.801,0-1.448-0.651-1.448-1.451C216.114,329.339,216.761,328.692,217.562,328.692z"/>
			<polygon fill="#5B5B5B" points="237.224,349.492 237.224,296.468 204.987,296.468 204.987,317.52 208.465,317.52 
				208.465,300.396 233.74,300.396 233.74,345.566 208.465,345.566 208.465,326.837 204.987,326.837 204.987,349.492 			"/>
		</g>
		<g>
			<path fill="#5B5B5B" d="M210.085,400.527h22.035v-42.028h-22.035v16.558h-5.098v7.304h5.098V400.527z M225.683,370.798
				c0.801,0,1.45,0.648,1.45,1.449c0,0.8-0.648,1.448-1.45,1.448c-0.799,0-1.446-0.648-1.446-1.448
				C224.236,371.446,224.883,370.798,225.683,370.798z M225.683,377.904c0.801,0,1.45,0.65,1.45,1.45
				c0,0.801-0.648,1.448-1.45,1.448c-0.799,0-1.446-0.647-1.446-1.448C224.236,378.555,224.883,377.904,225.683,377.904z
				 M225.683,385.223c0.801,0,1.45,0.647,1.45,1.448c0,0.8-0.648,1.45-1.45,1.45c-0.799,0-1.446-0.65-1.446-1.45
				C224.236,385.871,224.883,385.223,225.683,385.223z M217.562,370.798c0.801,0,1.451,0.648,1.451,1.449
				c0,0.8-0.65,1.448-1.451,1.448c-0.801,0-1.448-0.648-1.448-1.448C216.114,371.446,216.761,370.798,217.562,370.798z
				 M217.562,377.904c0.801,0,1.451,0.65,1.451,1.45c0,0.801-0.65,1.448-1.451,1.448c-0.801,0-1.448-0.647-1.448-1.448
				C216.114,378.555,216.761,377.904,217.562,377.904z M217.562,385.223c0.801,0,1.451,0.647,1.451,1.448
				c0,0.8-0.65,1.45-1.451,1.45c-0.801,0-1.448-0.65-1.448-1.45C216.114,385.871,216.761,385.223,217.562,385.223z"/>
			<polygon fill="#5B5B5B" points="237.224,406.024 237.224,353 204.987,353 204.987,374.05 208.465,374.05 208.465,356.928 
				233.74,356.928 233.74,402.097 208.465,402.097 208.465,383.369 204.987,383.369 204.987,406.024 			"/>
		</g>
	</g>
	<g display="inline">
		<g>
			<g>
				<path fill="#5B5B5B" d="M102.396,369.318h-70.74c-12.555,0-22.768-10.213-22.768-22.767v-70.74
					c0-12.555,10.213-22.768,22.768-22.768h70.74c12.555,0,22.767,10.213,22.767,22.768v70.74
					C125.164,359.104,114.951,369.318,102.396,369.318z M13.314,345.134c0,10.895,8.864,19.758,19.757,19.758h67.91
					c10.893,0,19.756-8.863,19.756-19.758v-67.906c0-10.894-8.863-19.758-19.756-19.758h-67.91
					c-10.893,0-19.757,8.865-19.757,19.758V345.134z"/>
			</g>
		</g>
		<path fill="#5B5B5B" d="M14.635,288.471c0,15.66,12.738,28.398,28.396,28.398s28.397-12.738,28.397-28.398
			c0-15.657-12.738-28.396-28.397-28.396S14.635,272.814,14.635,288.471z M40.306,285.886c1.879-1.964,5.164-1.873,7.337,0.207
			l14.063,13.443c2.172,2.078,2.412,5.356,0.535,7.319c-1.881,1.966-5.164,1.877-7.338-0.202l-14.063-13.445
			C38.667,291.129,38.427,287.853,40.306,285.886z"/>
		<g>
			<polygon fill="#5B5B5B" points="114.183,296.418 114.183,317.565 110.819,317.565 110.819,300.365 86.379,300.365 
				86.379,345.744 110.819,345.744 110.819,326.929 114.183,326.929 114.183,349.69 83.013,349.69 83.013,296.418 			"/>
			<path fill="#5B5B5B" d="M109.251,325.917h4.932v-7.34h-4.932v-16.636H87.946v42.225h21.305V325.917z M95.572,315.754
				c0,0.803-0.629,1.458-1.401,1.458c-0.775,0-1.402-0.654-1.402-1.458c0-0.804,0.627-1.455,1.402-1.455
				C94.943,314.299,95.572,314.95,95.572,315.754z M95.572,322.896c0,0.803-0.629,1.456-1.401,1.456
				c-0.775,0-1.402-0.653-1.402-1.456c0-0.803,0.627-1.457,1.402-1.457C94.943,321.439,95.572,322.092,95.572,322.896z
				 M95.572,330.246c0,0.805-0.629,1.457-1.401,1.457c-0.775,0-1.402-0.651-1.402-1.457c0-0.806,0.627-1.454,1.402-1.454
				C94.943,328.792,95.572,329.44,95.572,330.246z M103.422,315.754c0,0.803-0.626,1.458-1.401,1.458
				c-0.772,0-1.401-0.654-1.401-1.458c0-0.804,0.628-1.455,1.401-1.455C102.796,314.299,103.422,314.95,103.422,315.754z
				 M103.422,322.896c0,0.803-0.626,1.456-1.401,1.456c-0.772,0-1.401-0.653-1.401-1.456c0-0.803,0.628-1.457,1.401-1.457
				C102.796,321.439,103.422,322.092,103.422,322.896z M103.422,330.246c0,0.805-0.626,1.457-1.401,1.457
				c-0.772,0-1.401-0.651-1.401-1.457c0-0.806,0.628-1.454,1.401-1.454C102.796,328.792,103.422,329.44,103.422,330.246z"/>
		</g>
		<g>
			<g>
				<path fill="#5B5B5B" d="M105.23,286.702c-6.216,0-11.273-5.056-11.273-11.271c0-6.213,5.057-11.271,11.273-11.271
					c6.215,0,11.271,5.058,11.271,11.271C116.501,281.646,111.445,286.702,105.23,286.702z M105.23,282.155
					c3.708,0,6.725-3.017,6.725-6.725c0-3.708-3.017-6.723-6.725-6.723c-3.709,0-6.726,3.015-6.726,6.723
					C98.504,279.138,101.521,282.155,105.23,282.155z"/>
			</g>
		</g>
		<g>
			<g>
				<path fill="#5B5B5B" d="M28.658,357.292c-6.215,0-11.271-5.057-11.271-11.271s5.057-11.27,11.271-11.27
					s11.271,5.055,11.271,11.27S34.873,357.292,28.658,357.292z M28.658,352.746c3.708,0,6.725-3.017,6.725-6.726
					c0-3.708-3.017-6.723-6.725-6.723c-3.709,0-6.725,3.015-6.725,6.723C21.933,349.729,24.949,352.746,28.658,352.746z"/>
			</g>
		</g>
		<path fill="#5B5B5B" d="M71.211,342.852c0,4.55-3.701,8.248-8.25,8.248c-4.548,0-8.25-3.698-8.25-8.248
			c0-4.548,3.702-8.25,8.25-8.25C67.511,334.602,71.211,338.303,71.211,342.852z"/>
	</g>
	<g display="inline">
		<g>
			<g>
				<path fill="#5B5B5B" d="M623.944,219.989v70.74c0,12.554-10.213,22.767-22.767,22.767h-70.741
					c-12.553,0-22.767-10.212-22.767-22.767v-70.74c0-12.555,10.213-22.768,22.767-22.768h70.741
					C613.731,197.221,623.944,207.434,623.944,219.989z M511.874,289.453c0,10.939,8.9,19.839,19.84,19.839h68.188
					c10.94,0,19.84-8.9,19.84-19.839v-68.188c0-10.94-8.9-19.84-19.84-19.84h-68.188c-10.939,0-19.84,8.9-19.84,19.84V289.453z"/>
			</g>
		</g>
		<g>
			<path fill="#4C4C4C" d="M564.278,257.903v3.176h3.176C567.246,259.424,565.934,258.111,564.278,257.903z"/>
			<path fill="#4C4C4C" d="M560.184,261.08h3.177v-3.176C561.705,258.111,560.393,259.424,560.184,261.08z"/>
			<path fill="#4C4C4C" d="M564.278,265.173c1.655-0.208,2.968-1.521,3.176-3.176h-3.176V265.173z"/>
			<path fill="#4C4C4C" d="M563.36,265.173v-3.176h-3.177C560.393,263.652,561.705,264.965,563.36,265.173z"/>
			<path fill="#4C4C4C" d="M578.423,235.525c-12.82,0-23.251,10.431-23.251,23.251c0,12.823,10.431,23.252,23.251,23.252
				c12.821,0,23.252-10.429,23.252-23.252C601.675,245.957,591.244,235.525,578.423,235.525z M578.911,241.59l1.459,3.093
				l0.98-3.259l0.917-0.063l0.392,5.707l-0.66,0.046l-0.338-4.918l-1.064,3.435l-0.401,0.027l-1.515-3.257l0.338,4.918l-0.617,0.042
				l-0.393-5.707L578.911,241.59z M577.121,241.714l0.046,0.67l-2.081,0.145l0.104,1.519c0.079-0.016,0.158-0.03,0.235-0.042
				c0.077-0.009,0.149-0.017,0.213-0.022c0.254-0.018,0.471-0.009,0.649,0.03c0.179,0.036,0.356,0.119,0.527,0.249
				c0.174,0.133,0.313,0.301,0.415,0.51c0.103,0.208,0.166,0.485,0.189,0.83c0.019,0.275-0.001,0.532-0.063,0.774
				c-0.06,0.24-0.154,0.451-0.281,0.63c-0.126,0.185-0.292,0.333-0.493,0.448s-0.43,0.179-0.69,0.198
				c-0.236,0.017-0.472,0.002-0.708-0.041c-0.233-0.045-0.438-0.11-0.614-0.196l-0.057-0.809l0.048-0.002
				c0.052,0.04,0.13,0.083,0.23,0.131c0.098,0.05,0.207,0.094,0.328,0.136c0.135,0.042,0.259,0.077,0.369,0.097
				c0.111,0.023,0.234,0.03,0.369,0.021c0.133-0.01,0.263-0.046,0.385-0.109c0.123-0.065,0.226-0.16,0.309-0.29
				c0.074-0.117,0.129-0.253,0.16-0.407c0.034-0.154,0.043-0.333,0.029-0.537c-0.014-0.202-0.05-0.367-0.106-0.494
				c-0.057-0.127-0.135-0.23-0.23-0.307c-0.103-0.091-0.225-0.151-0.366-0.182c-0.141-0.03-0.299-0.039-0.47-0.028
				c-0.18,0.014-0.36,0.042-0.541,0.086c-0.181,0.042-0.324,0.085-0.431,0.12l-0.202-2.939L577.121,241.714z M563.818,266.123
				c-2.526,0-4.582-2.057-4.582-4.585c0-2.527,2.056-4.583,4.582-4.583c2.527,0,4.585,2.055,4.585,4.583
				C568.403,264.066,566.345,266.123,563.818,266.123z M569.784,242.221l3.998-0.277l0.047,0.675l-1.669,0.116l0.346,5.032
				l-0.659,0.044l-0.346-5.032l-1.667,0.116L569.784,242.221z M578.42,265.951c-3.954,0-7.171-3.219-7.171-7.175
				c0-3.955,3.217-7.174,7.171-7.174c3.958,0,7.175,3.219,7.175,7.174C585.595,262.732,582.378,265.951,578.42,265.951z
				 M583.918,246.981l-0.041-0.583l0.902-0.063l-0.264-3.824l-0.9,0.063l-0.037-0.521c0.34-0.024,0.587-0.096,0.741-0.219
				c0.155-0.123,0.229-0.339,0.227-0.651l0.52-0.035l0.354,5.143l0.882-0.061l0.038,0.583L583.918,246.981z"/>
		</g>
		<path fill="#5B5B5B" d="M608.829,217.377c0,4.55-3.701,8.247-8.25,8.247c-4.548,0-8.25-3.697-8.25-8.247
			c0-4.549,3.702-8.25,8.25-8.25C605.127,209.127,608.829,212.828,608.829,217.377z"/>
		<g>
			<path fill="#5B5B5B" d="M521.842,287.313h21.031V245.63h-21.031v18.016h-4.868v7.246h4.868V287.313z M538.115,273.679
				c0,0.794-0.621,1.438-1.385,1.438c-0.764,0-1.383-0.645-1.383-1.438c0-0.795,0.62-1.438,1.383-1.438
				C537.494,272.24,538.115,272.883,538.115,273.679z M530.363,273.679c0,0.794-0.62,1.438-1.384,1.438s-1.383-0.645-1.383-1.438
				c0-0.795,0.619-1.438,1.383-1.438S530.363,272.883,530.363,273.679z M527.596,259.372c0-0.793,0.619-1.439,1.383-1.439
				s1.384,0.646,1.384,1.439c0,0.794-0.62,1.435-1.384,1.435S527.596,260.167,527.596,259.372z M535.347,259.372
				c0-0.793,0.62-1.439,1.383-1.439c0.764,0,1.385,0.646,1.385,1.439c0,0.794-0.621,1.435-1.385,1.435
				C535.966,260.807,535.347,260.167,535.347,259.372z M527.596,266.629c0-0.795,0.619-1.44,1.383-1.44s1.384,0.645,1.384,1.44
				c0,0.793-0.62,1.437-1.384,1.437S527.596,267.422,527.596,266.629z M535.347,266.629c0-0.795,0.62-1.44,1.383-1.44
				c0.764,0,1.385,0.645,1.385,1.44c0,0.793-0.621,1.437-1.385,1.437C535.966,268.066,535.347,267.422,535.347,266.629z"/>
			<polygon fill="#5B5B5B" points="516.974,262.647 520.295,262.647 520.295,244.07 544.42,244.07 544.42,288.872 520.295,288.872 
				520.295,271.889 516.974,271.889 516.974,292.767 547.744,292.767 547.744,240.177 516.974,240.177 			"/>
		</g>
		<path fill="#5B5B5B" d="M517.187,219.295c0,6.075,4.945,11.019,11.022,11.019s11.021-4.944,11.021-11.019
			c0-6.078-4.943-11.021-11.021-11.021S517.187,213.217,517.187,219.295z M535.577,219.295c0,4.063-3.306,7.367-7.368,7.367
			c-4.063,0-7.369-3.305-7.369-7.367c0-4.065,3.305-7.369,7.369-7.369C532.271,211.926,535.577,215.23,535.577,219.295z"/>
		<path fill="#5B5B5B" d="M593.152,292.769c0,6.075,4.944,11.019,11.022,11.019c6.076,0,11.019-4.943,11.019-11.019
			c0-6.077-4.943-11.021-11.019-11.021C598.096,281.747,593.152,286.692,593.152,292.769z M611.54,292.769
			c0,4.061-3.304,7.366-7.366,7.366c-4.064,0-7.369-3.305-7.369-7.366c0-4.063,3.305-7.369,7.369-7.369
			C608.236,285.4,611.54,288.705,611.54,292.769z"/>
	</g>
	<g display="inline">
		<g>
			<path fill="#5B5B5B" d="M552.286,571.168H421.895c-12.18,0-22.087-4.922-22.087-17.098V495.47c0-10.048,9.907-17.1,22.087-17.1
				h130.391c12.179,0,22.087,7.671,22.087,17.1v58.601C574.373,563.5,564.465,571.168,552.286,571.168z M426.306,482.172
				c-16.042,0-21.765,5.794-21.765,15.279v54.638c0,13.395,10.774,15.279,21.765,15.279h121.571
				c15.41,0.814,21.763-6.855,21.763-15.279v-54.638c0-10.521-9.671-15.912-21.763-15.279H426.306z"/>
		</g>
		<g>
			<path fill="#353535" d="M439.73,523.654v30.967h91.284v-30.967H439.73z"/>
		</g>
		<g>
			<path fill="#5B5B5B" d="M447.067,539.138c0-4.573,2.908-8.479,6.97-9.969h-9.691v19.935h9.696
				C449.976,547.616,447.067,543.712,447.067,539.138z"/>
			<path fill="#5B5B5B" d="M461.316,549.104h29.057v-19.935H461.32c4.062,1.49,6.968,5.396,6.968,9.969
				C468.289,543.712,465.381,547.616,461.316,549.104z"/>
			<path fill="#5B5B5B" d="M439.73,523.654v30.967h91.284v-30.967H439.73z M491.094,549.826h-47.47v-21.377h47.47V549.826z
				 M516.017,551.475c-6.802,0-12.337-5.536-12.337-12.337c0-6.803,5.535-12.337,12.337-12.337c6.803,0,12.338,5.535,12.338,12.337
				C528.354,545.939,522.82,551.475,516.017,551.475z"/>
		</g>
		<path fill="#FFFFFF" d="M460.201,539.138c0-1.393-1.13-2.524-2.523-2.524c-1.393,0-2.522,1.131-2.522,2.524
			c0,1.394,1.129,2.521,2.522,2.521C459.071,541.66,460.201,540.532,460.201,539.138"/>
		<path fill="#FFFFFF" d="M518.541,537.692c0-1.392-1.131-2.52-2.524-2.52c-1.393,0-2.523,1.128-2.523,2.52
			c0,1.396,1.13,2.526,2.523,2.526C517.41,540.219,518.541,539.089,518.541,537.692"/>
		<g>
			<polygon fill="#5B5B5B" points="534.417,484.913 534.417,488.405 551.605,488.405 551.605,513.78 506.26,513.78 506.26,488.405 
				525.062,488.405 525.062,484.913 502.317,484.913 502.317,517.278 555.55,517.278 555.55,484.913 			"/>
			<path fill="#5B5B5B" d="M507.836,490.033v22.12h42.193v-22.12h-16.622v-5.12h-7.334v5.12H507.836z M521.746,507.148
				c-0.805,0-1.454-0.652-1.454-1.456c0-0.805,0.649-1.455,1.454-1.455c0.803,0,1.455,0.65,1.455,1.455
				C523.201,506.496,522.549,507.148,521.746,507.148z M521.746,498.994c-0.805,0-1.454-0.651-1.454-1.455
				c0-0.803,0.649-1.455,1.454-1.455c0.803,0,1.455,0.652,1.455,1.455C523.201,498.343,522.549,498.994,521.746,498.994z
				 M536.229,496.084c0.8,0,1.454,0.652,1.454,1.455c0,0.804-0.654,1.455-1.454,1.455c-0.804,0-1.456-0.651-1.456-1.455
				C534.773,496.736,535.426,496.084,536.229,496.084z M536.229,504.238c0.8,0,1.454,0.65,1.454,1.455
				c0,0.803-0.654,1.456-1.454,1.456c-0.804,0-1.456-0.652-1.456-1.456C534.773,504.888,535.426,504.238,536.229,504.238z
				 M529.093,496.084c0.802,0,1.455,0.652,1.455,1.455c0,0.804-0.653,1.455-1.455,1.455c-0.805,0-1.456-0.651-1.456-1.455
				C527.637,496.736,528.288,496.084,529.093,496.084z M529.093,504.238c0.802,0,1.455,0.65,1.455,1.455
				c0,0.803-0.653,1.456-1.455,1.456c-0.805,0-1.456-0.652-1.456-1.456C527.637,504.888,528.288,504.238,529.093,504.238z"/>
		</g>
		<g>
			<path fill="#5B5B5B" d="M461.2,502.253c0,4.673-3.801,8.476-8.474,8.476c-4.673,0-8.476-3.803-8.476-8.476
				c0-4.671,3.803-8.475,8.476-8.475C457.398,493.778,461.2,497.582,461.2,502.253z"/>
		</g>
		<g>
			<g>
				<path fill="#5B5B5B" d="M556.003,563.655c-4.8,0-8.705-3.907-8.705-8.707c0-4.803,3.904-8.709,8.705-8.709
					c4.803,0,8.708,3.906,8.708,8.709C564.711,559.748,560.806,563.655,556.003,563.655z M556.003,549.836
					c-2.816,0-5.109,2.292-5.109,5.112c0,2.818,2.293,5.109,5.109,5.109c2.82,0,5.112-2.291,5.112-5.109
					C561.115,552.128,558.823,549.836,556.003,549.836z"/>
			</g>
		</g>
		<g>
			<g>
				<path fill="#5B5B5B" d="M416.628,502.834c-4.801,0-8.706-3.905-8.706-8.705c0-4.802,3.905-8.707,8.706-8.707
					c4.802,0,8.707,3.905,8.707,8.707C425.335,498.929,421.43,502.834,416.628,502.834z M416.628,489.017
					c-2.817,0-5.109,2.294-5.109,5.112c0,2.817,2.292,5.11,5.109,5.11c2.819,0,5.112-2.292,5.112-5.11
					C421.74,491.311,419.447,489.017,416.628,489.017z"/>
			</g>
		</g>
	</g>
	<g display="inline">
		<g>
			<path fill="#5B5B5B" d="M169.167,57.104h129.986c12.141,0,22.02,4.907,22.02,17.045v58.419c0,10.018-9.878,17.047-22.02,17.047
				H169.167c-12.142,0-22.019-7.648-22.019-17.047V74.149C147.148,64.75,157.025,57.104,169.167,57.104z M294.758,145.825
				c15.994,0,21.696-5.777,21.696-15.233V76.125c0-13.354-10.74-15.231-21.696-15.231H173.563
				c-15.362-0.81-21.694,6.834-21.694,15.231v54.468c0,10.489,9.641,15.862,21.694,15.233H294.758z"/>
		</g>
		<g>
			<path fill="#E4E7E1" d="M285.906,105.855V63.836H160.36v42.019H285.906z"/>
		</g>
		<g>
			<polygon fill="#5B5B5B" points="201.52,143.092 201.52,139.611 184.384,139.611 184.384,114.315 229.589,114.315 
				229.589,139.611 210.846,139.611 210.846,143.092 233.519,143.092 233.519,110.829 180.453,110.829 180.453,143.092 			"/>
			<path fill="#5B5B5B" d="M228.019,137.989v-22.052h-42.063v22.052h16.571v5.103h7.313v-5.103H228.019z M214.153,120.927
				c0.801,0,1.449,0.65,1.449,1.45c0,0.803-0.648,1.451-1.449,1.451c-0.8,0-1.45-0.648-1.45-1.451
				C212.703,121.577,213.353,120.927,214.153,120.927z M214.153,129.055c0.801,0,1.449,0.65,1.449,1.449
				c0,0.803-0.648,1.453-1.449,1.453c-0.8,0-1.45-0.65-1.45-1.453C212.703,129.705,213.353,129.055,214.153,129.055z
				 M199.716,131.957c-0.8,0-1.45-0.65-1.45-1.453c0-0.799,0.65-1.449,1.45-1.449c0.8,0,1.449,0.65,1.449,1.449
				C201.165,131.307,200.516,131.957,199.716,131.957z M199.716,123.828c-0.8,0-1.45-0.648-1.45-1.451c0-0.8,0.65-1.45,1.45-1.45
				c0.8,0,1.449,0.65,1.449,1.45C201.165,123.179,200.516,123.828,199.716,123.828z M206.829,131.957c-0.8,0-1.452-0.65-1.452-1.453
				c0-0.799,0.652-1.449,1.452-1.449s1.451,0.65,1.451,1.449C208.28,131.307,207.629,131.957,206.829,131.957z M206.829,123.828
				c-0.8,0-1.452-0.648-1.452-1.451c0-0.8,0.652-1.45,1.452-1.45s1.451,0.65,1.451,1.45
				C208.28,123.179,207.629,123.828,206.829,123.828z"/>
		</g>
		<g>
			<g>
				<path fill="#5B5B5B" d="M165.462,124.01c4.785,0,8.679,3.894,8.679,8.679c0,4.787-3.894,8.682-8.679,8.682
					c-4.788,0-8.681-3.895-8.681-8.682C156.781,127.904,160.674,124.01,165.462,124.01z M165.462,137.786
					c2.807,0,5.094-2.287,5.094-5.097c0-2.808-2.287-5.093-5.094-5.093c-2.812,0-5.096,2.285-5.096,5.093
					C160.366,135.499,162.65,137.786,165.462,137.786z"/>
			</g>
		</g>
		<g>
			<g>
				<path fill="#5B5B5B" d="M304.405,63.836c4.786,0,8.679,3.895,8.679,8.68c0,4.788-3.894,8.68-8.679,8.68
					c-4.787,0-8.682-3.892-8.682-8.68C295.723,67.731,299.618,63.836,304.405,63.836z M304.405,77.613
					c2.808,0,5.094-2.287,5.094-5.097c0-2.81-2.286-5.093-5.094-5.093c-2.81,0-5.095,2.284-5.095,5.093
					C299.31,75.327,301.595,77.613,304.405,77.613z"/>
			</g>
		</g>
		<g>
			<defs>
				<rect id="SVGID_1_" x="160.36" y="63.748" width="125.545" height="42.105"/>
			</defs>
			<use xlink:href="#SVGID_1_"  overflow="visible" fill="#919191"/>
			<clipPath id="SVGID_2_">
				<use xlink:href="#SVGID_1_"  overflow="visible"/>
			</clipPath>
			<rect x="160.36" y="63.748" clip-path="url(#SVGID_2_)" fill="#919191" width="125.545" height="42.107"/>
		</g>
		<g>
			<path fill="#FFFFFF" d="M280.656,74.737l0.94-4.528l1.206-0.999l1.205,1.499l-2.558,12.054l-1.793,1.5l-1.206-1.5l1.501-7.026
				L280.656,74.737z M269.219,67.21h12.026l1.204,1.5l-1.852,1.499h-12.025l-1.175-1.499L269.219,67.21z M279.391,85.262
				l1.207,1.529l-2.559,12.026l-1.793,1.5l-0.823-1l0.971-4.498l-0.294-0.999l1.499-7.029L279.391,85.262z M262.398,99.316h12.024
				l1.207,1.5l-1.853,1.528h-12.053l-1.148-1.528L262.398,99.316z M266.751,69.21l0.792,0.999l-0.94,4.528l0.293,1l-1.498,7.026
				l-1.795,1.5l-1.204-1.5l2.557-12.054L266.751,69.21z M263.339,85.262l1.205,1.529l-1.499,7.029l-0.706,0.999l-0.969,4.498
				l-1.178,1l-1.206-1.5l2.559-12.026L263.339,85.262z"/>
			<path fill="#FFFFFF" d="M249.913,74.737l0.939-4.528l1.206-0.999l1.204,1.499l-2.558,12.054l-1.792,1.5l-1.207-1.5l1.5-7.026
				L249.913,74.737z M238.476,67.21H250.5l1.206,1.5l-1.853,1.499h-12.024l-1.176-1.499L238.476,67.21z M248.646,85.262l1.207,1.529
				l-2.558,12.026l-1.794,1.5l-0.823-1l0.971-4.498l-0.295-0.999l1.5-7.029L248.646,85.262z M231.654,99.316h12.025l1.205,1.5
				l-1.852,1.528h-12.056l-1.146-1.528L231.654,99.316z M236.005,69.21l0.793,0.999l-0.94,4.528l0.294,1l-1.499,7.026l-1.795,1.5
				l-1.204-1.5l2.557-12.054L236.005,69.21z M232.595,85.262l1.206,1.529l-1.5,7.029l-0.705,0.999l-0.972,4.498l-1.175,1l-1.207-1.5
				l2.559-12.026L232.595,85.262z"/>
			<path fill="#FFFFFF" d="M215.569,74.737l0.939-4.528l1.207-0.999l1.205,1.499l-2.558,12.054l-1.793,1.5l-1.206-1.5l1.5-7.026
				L215.569,74.737z M204.131,67.21h12.025l1.205,1.5l-1.853,1.499h-12.024l-1.176-1.499L204.131,67.21z M214.303,85.262
				l1.206,1.529l-2.558,12.026l-1.794,1.5l-0.823-1l0.971-4.498l-0.294-0.999l1.5-7.029L214.303,85.262z M197.31,99.316h12.025
				l1.206,1.5l-1.851,1.528h-12.056l-1.146-1.528L197.31,99.316z M201.663,69.21l0.792,0.999l-0.941,4.528l0.294,1l-1.499,7.026
				l-1.794,1.5l-1.205-1.5l2.558-12.054L201.663,69.21z M198.25,85.262l1.207,1.529l-1.5,7.029l-0.706,0.999l-0.97,4.498l-1.176,1
				l-1.205-1.5l2.558-12.026L198.25,85.262z"/>
			<path fill="#FFFFFF" d="M184.825,74.737l0.94-4.528l1.205-0.999l1.205,1.499l-2.557,12.054l-1.793,1.5l-1.205-1.5l1.5-7.026
				L184.825,74.737z M173.388,67.21h12.024l1.207,1.5l-1.853,1.499H172.74l-1.175-1.499L173.388,67.21z M183.56,85.262l1.206,1.529
				l-2.559,12.026l-1.793,1.5l-0.823-1l0.97-4.498l-0.294-0.999l1.499-7.029L183.56,85.262z M166.565,99.316h12.025l1.206,1.5
				l-1.852,1.528h-12.056l-1.145-1.528L166.565,99.316z M170.917,69.21l0.792,0.999l-0.939,4.528l0.293,1l-1.497,7.026l-1.795,1.5
				l-1.206-1.5l2.558-12.054L170.917,69.21z M167.507,85.262l1.204,1.529l-1.499,7.029l-0.705,0.999l-0.971,4.498l-1.177,1
				l-1.205-1.5l2.558-12.026L167.507,85.262z"/>
			<circle fill="#FFFFFF" cx="262.534" cy="68.71" r="1.701"/>
			<circle fill="#FFFFFF" cx="231.878" cy="68.71" r="1.7"/>
			<circle fill="#FFFFFF" cx="223.983" cy="77.954" r="1.701"/>
			<circle fill="#FFFFFF" cx="221.197" cy="91.814" r="1.7"/>
			<circle fill="#FFFFFF" cx="189.69" cy="100.644" r="1.701"/>
			<circle fill="#FFFFFF" cx="197.403" cy="68.71" r="1.701"/>
			<circle fill="#FFFFFF" cx="166.407" cy="68.71" r="1.701"/>
		</g>
		<path fill="#5B5B5B" d="M311.166,129.157c0,4.55-3.702,8.248-8.25,8.248c-4.548,0-8.25-3.698-8.25-8.248
			c0-4.549,3.703-8.25,8.25-8.25C307.464,120.907,311.166,124.607,311.166,129.157z"/>
	</g>
</g>
<g id="Layer_2" display="none">
	<g display="inline">
		<rect x="397.463" y="63.813" fill="#4C4C4C" width="25.191" height="7.15"/>
		<path fill="#B1D577" d="M506.71,32.886c0,5.115,4.145,9.259,9.26,9.259c5.115,0,9.263-4.145,9.263-9.259
			c0-5.113-4.147-9.26-9.263-9.26C510.855,23.626,506.71,27.772,506.71,32.886"/>
		<g>
			<path fill="#256498" d="M473.583,109.411v5.037h7.215v-5.037h17.941V87.649h-41.512v21.762H473.583z M472.239,94.004
				c0,0.793-0.64,1.433-1.429,1.433c-0.79,0-1.433-0.64-1.433-1.433c0-0.79,0.643-1.431,1.433-1.431
				C471.599,92.573,472.239,93.214,472.239,94.004z M472.239,102.025c0,0.792-0.64,1.433-1.429,1.433
				c-0.79,0-1.433-0.641-1.433-1.433c0-0.79,0.643-1.43,1.433-1.43C471.599,100.595,472.239,101.235,472.239,102.025z
				 M483.624,102.025c0-0.79,0.64-1.43,1.433-1.43c0.79,0,1.431,0.641,1.431,1.43c0,0.792-0.641,1.433-1.431,1.433
				C484.264,103.458,483.624,102.817,483.624,102.025z M483.624,94.004c0-0.79,0.64-1.431,1.433-1.431
				c0.79,0,1.431,0.641,1.431,1.431c0,0.793-0.641,1.433-1.431,1.433C484.264,95.437,483.624,94.797,483.624,94.004z
				 M476.399,102.025c0-0.79,0.64-1.43,1.431-1.43c0.789,0,1.428,0.641,1.428,1.43c0,0.792-0.64,1.433-1.428,1.433
				C477.039,103.458,476.399,102.817,476.399,102.025z M476.399,94.004c0-0.79,0.64-1.431,1.431-1.431
				c0.789,0,1.428,0.641,1.428,1.431c0,0.793-0.64,1.433-1.428,1.433C477.039,95.437,476.399,94.797,476.399,94.004z"/>
			<polygon fill="#256498" points="504.169,82.607 504.169,114.448 481.792,114.448 481.792,111.013 500.294,111.013 
				500.294,86.048 455.679,86.048 455.679,111.013 472.587,111.013 472.587,114.448 451.798,114.448 451.798,82.607 			"/>
		</g>
		<g>
			<g>
				<path fill="#9D2E24" d="M449.44,25.97c0-4.737,3.854-8.592,8.593-8.592c4.735,0,8.589,3.854,8.589,8.592
					c0,4.738-3.854,8.59-8.589,8.59C453.293,34.56,449.44,30.708,449.44,25.97z M452.989,25.97c0,2.781,2.262,5.042,5.043,5.042
					c2.778,0,5.042-2.262,5.042-5.042c0-2.78-2.264-5.044-5.042-5.044C455.251,20.925,452.989,23.189,452.989,25.97z"/>
			</g>
		</g>
		<g>
			<g>
				<path fill="#9D2E24" d="M511.705,108.301c0-4.737,3.854-8.591,8.592-8.591c4.738,0,8.589,3.854,8.589,8.591
					s-3.851,8.59-8.589,8.59C515.559,116.891,511.705,113.038,511.705,108.301z M515.253,108.301c0,2.78,2.262,5.042,5.043,5.042
					c2.781,0,5.042-2.263,5.042-5.042c0-2.781-2.261-5.043-5.042-5.043C517.515,103.258,515.253,105.52,515.253,108.301z"/>
			</g>
		</g>
		<path fill="#9D2E24" d="M422.655,89.003h17.963v14.222c0,12.527,8.538,22.719,19.034,22.719h58.864
			c10.496,0,19.035-10.191,19.035-22.719V32.329c0-12.527-8.54-22.72-19.035-22.72h-58.864c-10.496,0-19.034,10.193-19.034,22.72
			v14.787h-17.963V89.003z M444.605,33.849c0-10.938,4.834-19.836,16.309-19.836h56.338c10.945,0,16.309,8.898,16.309,19.836v67.856
			c0,10.937-5.615,19.834-16.309,19.834h-56.338c-11.475,0-16.309-8.897-16.309-19.834V33.849z M426.757,51.858h13.86V84.25h-13.86
			V51.858z"/>
	</g>
	<g display="inline">
		<g>
			<path fill="#9D2E24" d="M415.241,205.766c5.06,0,9.177,4.115,9.177,9.176c0,5.06-4.117,9.176-9.177,9.176
				s-9.177-4.117-9.177-9.176C406.063,209.881,410.181,205.766,415.241,205.766z M415.241,220.33c2.969,0,5.386-2.417,5.386-5.387
				c0-2.969-2.417-5.386-5.386-5.386c-2.97,0-5.386,2.417-5.386,5.386C409.854,217.913,412.271,220.33,415.241,220.33z"/>
		</g>
		<g>
			<path fill="#9D2E24" d="M212.313,205.766c5.059,0,9.177,4.115,9.177,9.176c0,5.06-4.118,9.176-9.177,9.176
				c-5.06,0-9.176-4.117-9.176-9.176C203.137,209.881,207.254,205.766,212.313,205.766z M212.313,220.33
				c2.97,0,5.385-2.417,5.385-5.387c0-2.969-2.415-5.386-5.385-5.386c-2.97,0-5.386,2.417-5.386,5.386
				C206.928,217.913,209.344,220.33,212.313,220.33z"/>
		</g>
		<path fill="#9D2E24" d="M415.241,417.022c5.06,0,9.177,4.118,9.177,9.176c0,5.06-4.117,9.177-9.177,9.177
			s-9.177-4.117-9.177-9.177C406.063,421.14,410.181,417.022,415.241,417.022z M415.241,431.585c2.969,0,5.386-2.417,5.386-5.387
			c0-2.97-2.417-5.387-5.386-5.387c-2.97,0-5.386,2.417-5.386,5.387C409.854,429.169,412.271,431.585,415.241,431.585z"/>
		<path fill="#9D2E24" d="M212.313,417.022c5.059,0,9.177,4.118,9.177,9.176c0,5.06-4.118,9.177-9.177,9.177
			c-5.06,0-9.176-4.117-9.176-9.177C203.137,421.14,207.254,417.022,212.313,417.022z M212.313,431.585
			c2.97,0,5.385-2.417,5.385-5.387c0-2.97-2.415-5.387-5.385-5.387c-2.97,0-5.386,2.417-5.386,5.387
			C206.928,429.169,209.344,431.585,212.313,431.585z"/>
		<path fill="#B1D577" d="M241.31,421.19c0-2.94,2.383-5.324,5.324-5.324c2.941,0,5.326,2.384,5.326,5.324
			c0,2.941-2.385,5.325-5.326,5.325C243.693,426.515,241.31,424.131,241.31,421.19"/>
		<path fill="#B1D577" d="M256.265,421.19c0-2.94,2.384-5.324,5.325-5.324s5.327,2.384,5.327,5.324c0,2.941-2.386,5.325-5.327,5.325
			S256.265,424.131,256.265,421.19"/>
		<g>
			<path fill="#919191" d="M364.624,353.404c3.761,0,6.819,3.061,6.819,6.82c0,3.76-3.059,6.819-6.819,6.819
				c-3.759,0-6.817-3.059-6.817-6.819C357.807,356.465,360.865,353.404,364.624,353.404z"/>
		</g>
		<path fill="#9D2E24" d="M209.161,444.483h214.017c9.609,0,17.426-7.819,17.426-17.427V213.038c0-9.609-7.817-17.425-17.426-17.425
			H209.161c-9.609,0-17.427,7.816-17.427,17.425v214.018C191.734,436.664,199.552,444.483,209.161,444.483z M349.764,442.098H315.84
			v-11.665h33.924V442.098z M349.764,428.773h-33.595v-26.678h33.595V428.773z M323.56,400.868v-3.979h18.194v3.979H323.56z
			 M196.501,213.038c0-6.979,5.679-12.658,12.66-12.658h214.017c6.979,0,12.658,5.679,12.658,12.658v214.018
			c0,6.979-5.679,12.658-12.658,12.658h-70.522v-48.767h-40.097v48.767H209.161c-6.98,0-12.66-5.679-12.66-12.658V213.038z"/>
		<g>
			<path fill="#256498" d="M420.496,245.596h-22.034v42.029h22.034V269.46h5.099v-7.306h-5.099V245.596z M404.898,275.219
				c-0.801,0-1.45-0.649-1.45-1.45c0-0.799,0.649-1.448,1.45-1.448c0.799,0,1.447,0.648,1.447,1.448
				C406.345,274.569,405.697,275.219,404.898,275.219z M404.898,267.903c-0.801,0-1.45-0.648-1.45-1.451
				c0-0.799,0.649-1.45,1.45-1.45c0.799,0,1.447,0.65,1.447,1.45C406.345,267.255,405.697,267.903,404.898,267.903z
				 M404.898,260.794c-0.801,0-1.45-0.649-1.45-1.45c0-0.8,0.649-1.449,1.45-1.449c0.799,0,1.447,0.649,1.447,1.449
				C406.345,260.145,405.697,260.794,404.898,260.794z M413.018,275.219c-0.799,0-1.451-0.649-1.451-1.45
				c0-0.799,0.652-1.448,1.451-1.448c0.801,0,1.45,0.648,1.45,1.448C414.467,274.569,413.818,275.219,413.018,275.219z
				 M413.018,267.903c-0.799,0-1.451-0.648-1.451-1.451c0-0.799,0.652-1.45,1.451-1.45c0.801,0,1.45,0.65,1.45,1.45
				C414.467,267.255,413.818,267.903,413.018,267.903z M413.018,260.794c-0.799,0-1.451-0.649-1.451-1.45
				c0-0.8,0.652-1.449,1.451-1.449c0.801,0,1.45,0.649,1.45,1.449C414.467,260.145,413.818,260.794,413.018,260.794z"/>
			<polygon fill="#256498" points="425.595,293.123 425.595,270.467 422.115,270.467 422.115,289.195 396.842,289.195 
				396.842,244.026 422.115,244.026 422.115,261.147 425.595,261.147 425.595,240.1 393.357,240.1 393.357,293.123 			"/>
		</g>
		<g>
			<path fill="#256498" d="M420.496,302.094h-22.034v42.027h22.034v-18.166h5.099v-7.302h-5.099V302.094z M404.898,331.716
				c-0.801,0-1.45-0.65-1.45-1.451c0-0.8,0.649-1.448,1.45-1.448c0.799,0,1.447,0.648,1.447,1.448
				C406.345,331.065,405.697,331.716,404.898,331.716z M404.898,324.397c-0.801,0-1.45-0.648-1.45-1.447c0-0.8,0.649-1.45,1.45-1.45
				c0.799,0,1.447,0.65,1.447,1.45C406.345,323.749,405.697,324.397,404.898,324.397z M404.898,317.289
				c-0.801,0-1.45-0.648-1.45-1.448s0.649-1.45,1.45-1.45c0.799,0,1.447,0.65,1.447,1.45S405.697,317.289,404.898,317.289z
				 M413.018,331.716c-0.799,0-1.451-0.65-1.451-1.451c0-0.8,0.652-1.448,1.451-1.448c0.801,0,1.45,0.648,1.45,1.448
				C414.467,331.065,413.818,331.716,413.018,331.716z M413.018,324.397c-0.799,0-1.451-0.648-1.451-1.447
				c0-0.8,0.652-1.45,1.451-1.45c0.801,0,1.45,0.65,1.45,1.45C414.467,323.749,413.818,324.397,413.018,324.397z M413.018,317.289
				c-0.799,0-1.451-0.648-1.451-1.448s0.652-1.45,1.451-1.45c0.801,0,1.45,0.65,1.45,1.45S413.818,317.289,413.018,317.289z"/>
			<polygon fill="#256498" points="425.595,349.619 425.595,326.964 422.115,326.964 422.115,345.692 396.842,345.692 
				396.842,300.523 422.115,300.523 422.115,317.645 425.595,317.645 425.595,296.595 393.357,296.595 393.357,349.619 			"/>
		</g>
		<g>
			<polygon fill="#256498" points="425.595,406.15 425.595,383.496 422.115,383.496 422.115,402.223 396.842,402.223 
				396.842,357.054 422.115,357.054 422.115,374.176 425.595,374.176 425.595,353.125 393.357,353.125 393.357,406.15 			"/>
			<path fill="#256498" d="M420.496,358.625h-22.034v42.027h22.034v-18.165h5.099v-7.304h-5.099V358.625z M404.898,388.247
				c-0.801,0-1.45-0.65-1.45-1.451c0-0.799,0.649-1.447,1.45-1.447c0.799,0,1.447,0.648,1.447,1.447
				C406.345,387.597,405.697,388.247,404.898,388.247z M404.898,380.929c-0.801,0-1.45-0.648-1.45-1.448c0-0.8,0.649-1.45,1.45-1.45
				c0.799,0,1.447,0.65,1.447,1.45C406.345,380.281,405.697,380.929,404.898,380.929z M404.898,373.821
				c-0.801,0-1.45-0.648-1.45-1.449c0-0.799,0.649-1.449,1.45-1.449c0.799,0,1.447,0.649,1.447,1.449
				C406.345,373.172,405.697,373.821,404.898,373.821z M413.018,388.247c-0.799,0-1.451-0.65-1.451-1.451
				c0-0.799,0.652-1.447,1.451-1.447c0.801,0,1.45,0.648,1.45,1.447C414.467,387.597,413.818,388.247,413.018,388.247z
				 M413.018,380.929c-0.799,0-1.451-0.648-1.451-1.448c0-0.8,0.652-1.45,1.451-1.45c0.801,0,1.45,0.65,1.45,1.45
				C414.467,380.281,413.818,380.929,413.018,380.929z M413.018,373.821c-0.799,0-1.451-0.648-1.451-1.449
				c0-0.799,0.652-1.449,1.451-1.449c0.801,0,1.45,0.649,1.45,1.449C414.467,373.172,413.818,373.821,413.018,373.821z"/>
		</g>
		<g>
			<path fill="#256498" d="M209.9,287.625h22.035v-42.029H209.9v16.558h-5.099v7.306h5.099V287.625z M225.498,257.896
				c0.802,0,1.451,0.649,1.451,1.449c0,0.8-0.649,1.45-1.451,1.45c-0.8,0-1.446-0.649-1.446-1.45
				C224.051,258.544,224.698,257.896,225.498,257.896z M225.498,265.002c0.802,0,1.451,0.65,1.451,1.45
				c0,0.803-0.649,1.451-1.451,1.451c-0.8,0-1.446-0.648-1.446-1.451C224.051,265.653,224.698,265.002,225.498,265.002z
				 M225.498,272.321c0.802,0,1.451,0.648,1.451,1.448c0,0.8-0.649,1.45-1.451,1.45c-0.8,0-1.446-0.649-1.446-1.45
				C224.051,272.97,224.698,272.321,225.498,272.321z M217.378,257.896c0.801,0,1.451,0.649,1.451,1.449c0,0.8-0.65,1.45-1.451,1.45
				s-1.449-0.649-1.449-1.45C215.929,258.544,216.577,257.896,217.378,257.896z M217.378,265.002c0.801,0,1.451,0.65,1.451,1.45
				c0,0.803-0.65,1.451-1.451,1.451s-1.449-0.648-1.449-1.451C215.929,265.653,216.577,265.002,217.378,265.002z M217.378,272.321
				c0.801,0,1.451,0.648,1.451,1.448c0,0.8-0.65,1.45-1.451,1.45s-1.449-0.649-1.449-1.45
				C215.929,272.97,216.577,272.321,217.378,272.321z"/>
			<polygon fill="#256498" points="237.039,293.123 237.039,240.1 204.802,240.1 204.802,261.147 208.28,261.147 208.28,244.026 
				233.555,244.026 233.555,289.195 208.28,289.195 208.28,270.467 204.802,270.467 204.802,293.123 			"/>
		</g>
		<g>
			<path fill="#256498" d="M266.368,215.794v22.034h42.027v-22.034h-16.558v-5.099h-7.305v5.099H266.368z M296.095,231.391
				c0,0.802-0.647,1.451-1.448,1.451c-0.801,0-1.448-0.648-1.448-1.451c0-0.799,0.647-1.446,1.448-1.446
				C295.448,229.945,296.095,230.592,296.095,231.391z M288.988,231.391c0,0.802-0.65,1.451-1.45,1.451
				c-0.801,0-1.449-0.648-1.449-1.451c0-0.799,0.648-1.446,1.449-1.446C288.338,229.945,288.988,230.592,288.988,231.391z
				 M281.669,231.391c0,0.802-0.647,1.451-1.446,1.451c-0.801,0-1.45-0.648-1.45-1.451c0-0.799,0.649-1.446,1.45-1.446
				C281.021,229.945,281.669,230.592,281.669,231.391z M296.095,223.271c0,0.801-0.647,1.452-1.448,1.452
				c-0.801,0-1.448-0.651-1.448-1.452c0-0.801,0.647-1.449,1.448-1.449C295.448,221.822,296.095,222.47,296.095,223.271z
				 M288.988,223.271c0,0.801-0.65,1.452-1.45,1.452c-0.801,0-1.449-0.651-1.449-1.452c0-0.801,0.648-1.449,1.449-1.449
				C288.338,221.822,288.988,222.47,288.988,223.271z M281.669,223.271c0,0.801-0.647,1.452-1.446,1.452
				c-0.801,0-1.45-0.651-1.45-1.452c0-0.801,0.649-1.449,1.45-1.449C281.021,221.822,281.669,222.47,281.669,223.271z"/>
			<polygon fill="#256498" points="260.87,242.934 313.894,242.934 313.894,210.695 292.843,210.695 292.843,214.173 
				309.964,214.173 309.964,239.449 264.795,239.449 264.795,214.173 283.523,214.173 283.523,210.695 260.87,210.695 			"/>
		</g>
		<g>
			<path fill="#256498" d="M323.207,215.794v22.034h42.027v-22.034h-16.559v-5.099h-7.304v5.099H323.207z M352.935,231.391
				c0,0.802-0.648,1.451-1.449,1.451c-0.799,0-1.447-0.648-1.447-1.451c0-0.799,0.647-1.446,1.447-1.446
				C352.286,229.945,352.935,230.592,352.935,231.391z M345.828,231.391c0,0.802-0.65,1.451-1.449,1.451
				c-0.803,0-1.452-0.648-1.452-1.451c0-0.799,0.649-1.446,1.452-1.446C345.178,229.945,345.828,230.592,345.828,231.391z
				 M338.509,231.391c0,0.802-0.647,1.451-1.448,1.451c-0.799,0-1.45-0.648-1.45-1.451c0-0.799,0.651-1.446,1.45-1.446
				C337.862,229.945,338.509,230.592,338.509,231.391z M352.935,223.271c0,0.801-0.648,1.452-1.449,1.452
				c-0.799,0-1.447-0.651-1.447-1.452c0-0.801,0.647-1.449,1.447-1.449C352.286,221.822,352.935,222.47,352.935,223.271z
				 M345.828,223.271c0,0.801-0.65,1.452-1.449,1.452c-0.803,0-1.452-0.651-1.452-1.452c0-0.801,0.649-1.449,1.452-1.449
				C345.178,221.822,345.828,222.47,345.828,223.271z M338.509,223.271c0,0.801-0.647,1.452-1.448,1.452
				c-0.799,0-1.45-0.651-1.45-1.452c0-0.801,0.651-1.449,1.45-1.449C337.862,221.822,338.509,222.47,338.509,223.271z"/>
			<polygon fill="#256498" points="317.709,242.934 370.732,242.934 370.732,210.695 349.682,210.695 349.682,214.173 
				366.804,214.173 366.804,239.449 321.635,239.449 321.635,214.173 340.363,214.173 340.363,210.695 317.709,210.695 			"/>
		</g>
		<g>
			<path fill="#256498" d="M209.9,344.121h22.035v-42.027H209.9v16.559h-5.099v7.302h5.099V344.121z M225.498,314.392
				c0.802,0,1.451,0.65,1.451,1.45s-0.649,1.448-1.451,1.448c-0.8,0-1.446-0.648-1.446-1.448S224.698,314.392,225.498,314.392z
				 M225.498,321.5c0.802,0,1.451,0.65,1.451,1.45c0,0.799-0.649,1.447-1.451,1.447c-0.8,0-1.446-0.648-1.446-1.447
				C224.051,322.15,224.698,321.5,225.498,321.5z M225.498,328.817c0.802,0,1.451,0.648,1.451,1.448c0,0.8-0.649,1.451-1.451,1.451
				c-0.8,0-1.446-0.65-1.446-1.451C224.051,329.465,224.698,328.817,225.498,328.817z M217.378,314.392
				c0.801,0,1.451,0.65,1.451,1.45s-0.65,1.448-1.451,1.448s-1.449-0.648-1.449-1.448S216.577,314.392,217.378,314.392z
				 M217.378,321.5c0.801,0,1.451,0.65,1.451,1.45c0,0.799-0.65,1.447-1.451,1.447s-1.449-0.648-1.449-1.447
				C215.929,322.15,216.577,321.5,217.378,321.5z M217.378,328.817c0.801,0,1.451,0.648,1.451,1.448c0,0.8-0.65,1.451-1.451,1.451
				s-1.449-0.65-1.449-1.451C215.929,329.465,216.577,328.817,217.378,328.817z"/>
			<polygon fill="#256498" points="237.039,349.619 237.039,296.595 204.802,296.595 204.802,317.645 208.28,317.645 
				208.28,300.523 233.555,300.523 233.555,345.692 208.28,345.692 208.28,326.964 204.802,326.964 204.802,349.619 			"/>
		</g>
		<g>
			<path fill="#256498" d="M209.9,400.652h22.035v-42.027H209.9v16.558h-5.099v7.304h5.099V400.652z M225.498,370.923
				c0.802,0,1.451,0.649,1.451,1.449c0,0.8-0.649,1.449-1.451,1.449c-0.8,0-1.446-0.648-1.446-1.449
				C224.051,371.573,224.698,370.923,225.498,370.923z M225.498,378.031c0.802,0,1.451,0.65,1.451,1.45
				c0,0.8-0.649,1.448-1.451,1.448c-0.8,0-1.446-0.648-1.446-1.448C224.051,378.681,224.698,378.031,225.498,378.031z
				 M225.498,385.349c0.802,0,1.451,0.648,1.451,1.447c0,0.801-0.649,1.451-1.451,1.451c-0.8,0-1.446-0.65-1.446-1.451
				C224.051,385.997,224.698,385.349,225.498,385.349z M217.378,370.923c0.801,0,1.451,0.649,1.451,1.449
				c0,0.8-0.65,1.449-1.451,1.449s-1.449-0.648-1.449-1.449C215.929,371.573,216.577,370.923,217.378,370.923z M217.378,378.031
				c0.801,0,1.451,0.65,1.451,1.45c0,0.8-0.65,1.448-1.451,1.448s-1.449-0.648-1.449-1.448
				C215.929,378.681,216.577,378.031,217.378,378.031z M217.378,385.349c0.801,0,1.451,0.648,1.451,1.447
				c0,0.801-0.65,1.451-1.451,1.451s-1.449-0.65-1.449-1.451C215.929,385.997,216.577,385.349,217.378,385.349z"/>
			<polygon fill="#256498" points="237.039,406.15 237.039,353.125 204.802,353.125 204.802,374.176 208.28,374.176 208.28,357.054 
				233.555,357.054 233.555,402.223 208.28,402.223 208.28,383.496 204.802,383.496 204.802,406.15 			"/>
		</g>
	</g>
	<g display="inline">
		<g>
			<g>
				<path fill="#9D2E24" d="M102.212,369.444h-70.74c-12.554,0-22.767-10.214-22.767-22.767v-70.74
					c0-12.555,10.213-22.767,22.767-22.767h70.74c12.554,0,22.766,10.212,22.766,22.767v70.74
					C124.978,359.23,114.766,369.444,102.212,369.444z M13.13,345.26c0,10.895,8.864,19.757,19.757,19.757h67.909
					c10.895,0,19.756-8.863,19.756-19.757v-67.907c0-10.893-8.862-19.757-19.756-19.757H32.887
					c-10.893,0-19.757,8.864-19.757,19.757V345.26z"/>
			</g>
		</g>
		<path fill="#4C4C4C" d="M14.451,288.598c0,15.66,12.738,28.397,28.396,28.397c15.659,0,28.398-12.737,28.398-28.397
			c0-15.658-12.739-28.397-28.398-28.397C27.188,260.201,14.451,272.94,14.451,288.598z M40.121,286.013
			c1.881-1.965,5.165-1.875,7.337,0.205l14.063,13.444c2.173,2.078,2.413,5.356,0.535,7.319c-1.881,1.966-5.164,1.877-7.337-0.202
			l-14.063-13.445C38.482,291.256,38.242,287.979,40.121,286.013z"/>
		<g>
			<polygon fill="#256498" points="113.999,296.545 113.999,317.691 110.635,317.691 110.635,300.491 86.194,300.491 86.194,345.87 
				110.635,345.87 110.635,327.055 113.999,327.055 113.999,349.817 82.828,349.817 82.828,296.545 			"/>
			<path fill="#256498" d="M109.066,326.043h4.933v-7.34h-4.933v-16.635H87.762v42.225h21.304V326.043z M95.387,315.88
				c0,0.803-0.628,1.457-1.401,1.457c-0.774,0-1.403-0.653-1.403-1.457c0-0.805,0.629-1.456,1.403-1.456
				C94.759,314.425,95.387,315.075,95.387,315.88z M95.387,323.021c0,0.803-0.628,1.456-1.401,1.456
				c-0.774,0-1.403-0.653-1.403-1.456c0-0.803,0.629-1.456,1.403-1.456C94.759,321.566,95.387,322.219,95.387,323.021z
				 M95.387,330.372c0,0.806-0.628,1.457-1.401,1.457c-0.774,0-1.403-0.651-1.403-1.457c0-0.804,0.629-1.454,1.403-1.454
				C94.759,328.917,95.387,329.567,95.387,330.372z M103.237,315.88c0,0.803-0.626,1.457-1.4,1.457
				c-0.773,0-1.401-0.653-1.401-1.457c0-0.805,0.628-1.456,1.401-1.456C102.611,314.425,103.237,315.075,103.237,315.88z
				 M103.237,323.021c0,0.803-0.626,1.456-1.4,1.456c-0.773,0-1.401-0.653-1.401-1.456c0-0.803,0.628-1.456,1.401-1.456
				C102.611,321.566,103.237,322.219,103.237,323.021z M103.237,330.372c0,0.806-0.626,1.457-1.4,1.457
				c-0.773,0-1.401-0.651-1.401-1.457c0-0.804,0.628-1.454,1.401-1.454C102.611,328.917,103.237,329.567,103.237,330.372z"/>
		</g>
		<g>
			<g>
				<path fill="#9D2E24" d="M105.044,286.828c-6.216,0-11.271-5.056-11.271-11.272c0-6.213,5.055-11.27,11.271-11.27
					s11.271,5.057,11.271,11.27C116.315,281.772,111.26,286.828,105.044,286.828z M105.044,282.281c3.708,0,6.726-3.017,6.726-6.725
					c0-3.706-3.018-6.722-6.726-6.722c-3.707,0-6.725,3.016-6.725,6.722C98.319,279.264,101.337,282.281,105.044,282.281z"/>
			</g>
		</g>
		<g>
			<g>
				<path fill="#9D2E24" d="M28.474,357.418c-6.214,0-11.271-5.057-11.271-11.272c0-6.214,5.057-11.269,11.271-11.269
					c6.215,0,11.271,5.055,11.271,11.269C39.744,352.361,34.689,357.418,28.474,357.418z M28.474,352.871
					c3.708,0,6.725-3.016,6.725-6.725c0-3.707-3.017-6.722-6.725-6.722c-3.709,0-6.725,3.016-6.725,6.722
					C21.749,349.854,24.765,352.871,28.474,352.871z"/>
			</g>
		</g>
		<path fill="#B1D577" d="M71.026,342.978c0,4.55-3.7,8.248-8.249,8.248s-8.251-3.698-8.251-8.248c0-4.549,3.702-8.25,8.251-8.25
			S71.026,338.429,71.026,342.978z"/>
	</g>
	<g display="inline">
		<g>
			<g>
				<path fill="#9D2E24" d="M623.76,220.115v70.741c0,12.554-10.212,22.766-22.767,22.766h-70.741
					c-12.554,0-22.767-10.212-22.767-22.766v-70.741c0-12.554,10.213-22.767,22.767-22.767h70.741
					C613.547,197.348,623.76,207.561,623.76,220.115z M511.688,289.578c0,10.94,8.9,19.84,19.841,19.84h68.189
					c10.938,0,19.837-8.9,19.837-19.84v-68.187c0-10.941-8.9-19.841-19.837-19.841h-68.189c-10.94,0-19.841,8.9-19.841,19.841
					V289.578z"/>
			</g>
		</g>
		<g>
			<path fill="#4C4C4C" d="M601.489,258.904c0,12.821-10.429,23.25-23.252,23.25c-12.819,0-23.251-10.429-23.251-23.25
				s10.432-23.252,23.251-23.252C591.06,235.652,601.489,246.083,601.489,258.904z"/>
		</g>
		<g>
			<path fill="#919191" d="M585.412,258.904c0,3.955-3.218,7.173-7.176,7.173c-3.955,0-7.173-3.218-7.173-7.173
				c0-3.957,3.218-7.175,7.173-7.175C582.194,251.729,585.412,254.947,585.412,258.904z"/>
		</g>
		<g>
			<path fill="#353535" d="M559.051,261.664c0,2.528,2.056,4.584,4.582,4.584c2.528,0,4.585-2.056,4.585-4.584
				c0-2.528-2.057-4.583-4.585-4.583C561.107,257.081,559.051,259.136,559.051,261.664z M563.175,258.03v3.177H560
				C560.208,259.55,561.521,258.237,563.175,258.03z M560,262.124h3.175v3.175C561.521,265.092,560.208,263.778,560,262.124z
				 M564.093,265.299v-3.175h3.175C567.062,263.778,565.748,265.092,564.093,265.299z M567.269,261.207h-3.175v-3.177
				C565.748,258.237,567.062,259.55,567.269,261.207z"/>
		</g>
		<g>
			<path fill="#919191" d="M571.661,247.937l-0.345-5.031l-1.668,0.115l-0.049-0.674l3.998-0.277l0.046,0.675l-1.667,0.116
				l0.346,5.031L571.661,247.937z"/>
			<path fill="#919191" d="M577.233,245.729c0.02,0.274-0.001,0.533-0.061,0.775c-0.062,0.239-0.156,0.451-0.282,0.63
				c-0.127,0.185-0.292,0.333-0.494,0.447c-0.2,0.114-0.429,0.179-0.688,0.199c-0.239,0.017-0.475,0.001-0.71-0.042
				c-0.232-0.045-0.437-0.109-0.613-0.195l-0.057-0.809l0.047-0.002c0.054,0.039,0.13,0.081,0.231,0.13
				c0.098,0.05,0.207,0.094,0.326,0.135c0.137,0.043,0.26,0.078,0.37,0.098c0.111,0.025,0.235,0.03,0.369,0.02
				c0.133-0.01,0.262-0.047,0.385-0.108c0.123-0.064,0.227-0.16,0.309-0.29c0.074-0.117,0.129-0.254,0.16-0.406
				c0.035-0.154,0.044-0.333,0.03-0.537c-0.015-0.203-0.05-0.367-0.106-0.495c-0.056-0.126-0.134-0.229-0.23-0.306
				c-0.103-0.092-0.224-0.151-0.366-0.181c-0.143-0.03-0.299-0.039-0.47-0.028c-0.18,0.013-0.36,0.041-0.54,0.086
				c-0.181,0.043-0.324,0.084-0.432,0.119l-0.201-2.938l2.724-0.189l0.047,0.671l-2.082,0.144l0.104,1.52
				c0.079-0.018,0.157-0.031,0.235-0.042c0.077-0.009,0.149-0.016,0.213-0.023c0.254-0.017,0.47-0.008,0.648,0.031
				c0.179,0.036,0.355,0.119,0.527,0.249c0.173,0.132,0.313,0.301,0.415,0.51C577.146,245.106,577.21,245.383,577.233,245.729z"/>
			<path fill="#919191" d="M582.474,247.193l-0.66,0.044l-0.338-4.918l-1.064,3.435l-0.399,0.028l-1.515-3.257l0.339,4.918
				l-0.618,0.042l-0.393-5.706l0.901-0.063l1.459,3.092l0.979-3.259l0.917-0.063L582.474,247.193z"/>
			<path fill="#919191" d="M586.155,246.938l-2.422,0.169l-0.042-0.583l0.902-0.064l-0.264-3.823l-0.9,0.063l-0.036-0.521
				c0.341-0.025,0.588-0.096,0.74-0.219c0.155-0.124,0.229-0.339,0.228-0.652l0.518-0.034l0.355,5.144l0.88-0.062L586.155,246.938z"
				/>
		</g>
		<path fill="#B1D577" d="M608.643,217.504c0,4.548-3.701,8.246-8.249,8.246c-4.548,0-8.25-3.698-8.25-8.246
			c0-4.551,3.702-8.251,8.25-8.251C604.942,209.253,608.643,212.954,608.643,217.504z"/>
		<g>
			<path fill="#256498" d="M521.657,287.439h21.032v-41.683h-21.032v18.016h-4.867v7.246h4.867V287.439z M537.93,273.805
				c0,0.795-0.621,1.438-1.384,1.438c-0.764,0-1.383-0.643-1.383-1.438s0.619-1.438,1.383-1.438
				C537.309,272.367,537.93,273.01,537.93,273.805z M530.179,273.805c0,0.795-0.621,1.438-1.385,1.438s-1.384-0.643-1.384-1.438
				s0.62-1.438,1.384-1.438S530.179,273.01,530.179,273.805z M527.41,259.498c0-0.793,0.62-1.439,1.384-1.439
				s1.385,0.646,1.385,1.439c0,0.794-0.621,1.435-1.385,1.435S527.41,260.292,527.41,259.498z M535.163,259.498
				c0-0.793,0.619-1.439,1.383-1.439c0.763,0,1.384,0.646,1.384,1.439c0,0.794-0.621,1.435-1.384,1.435
				C535.782,260.933,535.163,260.292,535.163,259.498z M527.41,266.755c0-0.795,0.62-1.439,1.384-1.439s1.385,0.645,1.385,1.439
				c0,0.794-0.621,1.438-1.385,1.438S527.41,267.549,527.41,266.755z M535.163,266.755c0-0.795,0.619-1.439,1.383-1.439
				c0.763,0,1.384,0.645,1.384,1.439c0,0.794-0.621,1.438-1.384,1.438C535.782,268.192,535.163,267.549,535.163,266.755z"/>
			<polygon fill="#256498" points="516.79,262.773 520.11,262.773 520.11,244.197 544.236,244.197 544.236,288.997 520.11,288.997 
				520.11,272.014 516.79,272.014 516.79,292.894 547.561,292.894 547.561,240.303 516.79,240.303 			"/>
		</g>
		<path fill="#9D2E24" d="M517.003,219.421c0,6.075,4.945,11.017,11.021,11.017c6.077,0,11.02-4.942,11.02-11.017
			c0-6.076-4.943-11.022-11.02-11.022C521.948,208.399,517.003,213.345,517.003,219.421z M535.391,219.421
			c0,4.061-3.305,7.366-7.367,7.366c-4.063,0-7.369-3.305-7.369-7.366c0-4.065,3.306-7.369,7.369-7.369
			C532.086,212.053,535.391,215.356,535.391,219.421z"/>
		<path fill="#9D2E24" d="M592.966,292.895c0,6.075,4.944,11.019,11.023,11.019c6.077,0,11.019-4.944,11.019-11.019
			c0-6.077-4.942-11.021-11.019-11.021C597.911,281.874,592.966,286.817,592.966,292.895z M611.356,292.895
			c0,4.062-3.305,7.366-7.367,7.366c-4.064,0-7.371-3.305-7.371-7.366c0-4.063,3.307-7.368,7.371-7.368
			C608.051,285.527,611.356,288.831,611.356,292.895z"/>
	</g>
	<g display="inline">
		<g>
			<path fill="#9D2E24" d="M552.102,571.295H421.709c-12.179,0-22.086-4.922-22.086-17.098v-58.602
				c0-10.048,9.907-17.101,22.086-17.101h130.392c12.18,0,22.087,7.673,22.087,17.101v58.602
				C574.188,563.626,564.282,571.295,552.102,571.295z M426.12,482.298c-16.041,0-21.764,5.795-21.764,15.279v54.638
				c0,13.394,10.773,15.277,21.764,15.277h121.572c15.409,0.815,21.763-6.853,21.763-15.277v-54.638
				c0-10.521-9.671-15.912-21.763-15.279H426.12z"/>
		</g>
		<g>
			<path fill="#353535" d="M439.546,523.78v30.967h91.284V523.78H439.546z"/>
		</g>
		<g>
			<path fill="#4C4C4C" d="M446.882,539.265c0-4.573,2.908-8.479,6.97-9.969h-9.691v19.935h9.695
				C449.792,547.743,446.882,543.838,446.882,539.265z"/>
			<path fill="#4C4C4C" d="M461.131,549.23h29.057v-19.935h-29.053c4.062,1.49,6.969,5.396,6.969,9.969
				S465.196,547.743,461.131,549.23z"/>
			<path fill="#4C4C4C" d="M439.546,523.78v30.967h91.284V523.78H439.546z M490.908,549.953h-47.47v-21.377h47.47V549.953z
				 M515.832,551.602c-6.802,0-12.337-5.535-12.337-12.337c0-6.802,5.535-12.337,12.337-12.337c6.801,0,12.337,5.535,12.337,12.337
				C528.169,546.066,522.633,551.602,515.832,551.602z"/>
		</g>
		<path fill="#FFFFFF" d="M460.017,539.265c0-1.394-1.132-2.524-2.522-2.524c-1.395,0-2.524,1.131-2.524,2.524
			c0,1.393,1.129,2.521,2.524,2.521C458.885,541.786,460.017,540.658,460.017,539.265"/>
		<path fill="#FFFFFF" d="M518.356,537.819c0-1.393-1.13-2.52-2.524-2.52c-1.393,0-2.522,1.127-2.522,2.52
			c0,1.394,1.13,2.524,2.522,2.524C517.226,540.344,518.356,539.213,518.356,537.819"/>
		<g>
			<polygon fill="#256498" points="534.233,485.039 534.233,488.531 551.42,488.531 551.42,513.906 506.075,513.906 
				506.075,488.531 524.878,488.531 524.878,485.039 502.133,485.039 502.133,517.404 555.365,517.404 555.365,485.039 			"/>
			<path fill="#256498" d="M507.652,490.159v22.119h42.192v-22.119h-16.622v-5.12h-7.333v5.12H507.652z M521.561,507.274
				c-0.803,0-1.454-0.65-1.454-1.454c0-0.806,0.65-1.456,1.454-1.456c0.804,0,1.455,0.65,1.455,1.456
				C523.016,506.624,522.365,507.274,521.561,507.274z M521.561,499.121c-0.803,0-1.454-0.652-1.454-1.456
				c0-0.804,0.65-1.456,1.454-1.456c0.804,0,1.455,0.651,1.455,1.456C523.016,498.469,522.365,499.121,521.561,499.121z
				 M536.044,496.21c0.802,0,1.455,0.651,1.455,1.456c0,0.803-0.652,1.456-1.455,1.456c-0.804,0-1.455-0.652-1.455-1.456
				C534.589,496.861,535.24,496.21,536.044,496.21z M536.044,504.364c0.802,0,1.455,0.65,1.455,1.456
				c0,0.804-0.652,1.454-1.455,1.454c-0.804,0-1.455-0.65-1.455-1.454C534.589,505.014,535.24,504.364,536.044,504.364z
				 M528.908,496.21c0.802,0,1.455,0.651,1.455,1.456c0,0.803-0.652,1.456-1.455,1.456c-0.804,0-1.456-0.652-1.456-1.456
				C527.452,496.861,528.104,496.21,528.908,496.21z M528.908,504.364c0.802,0,1.455,0.65,1.455,1.456
				c0,0.804-0.652,1.454-1.455,1.454c-0.804,0-1.456-0.65-1.456-1.454C527.452,505.014,528.104,504.364,528.908,504.364z"/>
		</g>
		<g>
			<path fill="#B1D577" d="M461.015,502.38c0,4.673-3.801,8.475-8.473,8.475s-8.475-3.802-8.475-8.475s3.803-8.475,8.475-8.475
				S461.015,497.707,461.015,502.38z"/>
		</g>
		<g>
			<g>
				<path fill="#9D2E24" d="M555.818,563.781c-4.8,0-8.705-3.907-8.705-8.708c0-4.802,3.905-8.707,8.705-8.707
					c4.804,0,8.708,3.905,8.708,8.707C564.526,559.875,560.622,563.781,555.818,563.781z M555.818,549.961
					c-2.815,0-5.108,2.294-5.108,5.112c0,2.82,2.292,5.111,5.108,5.111c2.822,0,5.112-2.291,5.112-5.111
					C560.93,552.255,558.64,549.961,555.818,549.961z"/>
			</g>
		</g>
		<g>
			<g>
				<path fill="#9D2E24" d="M416.444,502.96c-4.802,0-8.708-3.906-8.708-8.705c0-4.803,3.906-8.708,8.708-8.708
					c4.801,0,8.707,3.905,8.707,8.708C425.151,499.055,421.246,502.96,416.444,502.96z M416.444,489.143
					c-2.817,0-5.11,2.294-5.11,5.113c0,2.816,2.292,5.11,5.11,5.11s5.111-2.293,5.111-5.11
					C421.555,491.437,419.262,489.143,416.444,489.143z"/>
			</g>
		</g>
	</g>
	<g display="inline">
		<g>
			<path fill="#9D2E24" d="M168.982,57.23h129.986c12.142,0,22.021,4.906,22.021,17.046v58.419c0,10.018-9.879,17.047-22.021,17.047
				H168.982c-12.141,0-22.018-7.649-22.018-17.047V74.276C146.964,64.875,156.841,57.23,168.982,57.23z M294.573,145.952
				c15.994,0,21.696-5.776,21.696-15.232V76.25c0-13.355-10.74-15.23-21.696-15.23H173.378c-15.362-0.811-21.695,6.833-21.695,15.23
				v54.469c0,10.488,9.64,15.861,21.695,15.232H294.573z"/>
		</g>
		<g>
			<path fill="#E4E7E1" d="M285.721,105.98V63.962H160.176v42.018H285.721z"/>
		</g>
		<g>
			<polygon fill="#256498" points="201.335,143.219 201.335,139.737 184.199,139.737 184.199,114.442 229.405,114.442 
				229.405,139.737 210.662,139.737 210.662,143.219 233.334,143.219 233.334,110.955 180.268,110.955 180.268,143.219 			"/>
			<path fill="#256498" d="M227.834,138.116v-22.053h-42.063v22.053h16.572v5.103h7.311v-5.103H227.834z M213.968,121.053
				c0.801,0,1.45,0.649,1.45,1.449c0,0.804-0.648,1.453-1.45,1.453c-0.8,0-1.449-0.649-1.449-1.453
				C212.519,121.702,213.167,121.053,213.968,121.053z M213.968,129.181c0.801,0,1.45,0.65,1.45,1.45
				c0,0.802-0.648,1.452-1.45,1.452c-0.8,0-1.449-0.65-1.449-1.452C212.519,129.831,213.167,129.181,213.968,129.181z
				 M199.531,132.083c-0.8,0-1.45-0.65-1.45-1.452c0-0.8,0.65-1.45,1.45-1.45s1.45,0.65,1.45,1.45
				C200.98,131.433,200.331,132.083,199.531,132.083z M199.531,123.955c-0.8,0-1.45-0.649-1.45-1.453c0-0.8,0.65-1.449,1.45-1.449
				s1.45,0.649,1.45,1.449C200.98,123.306,200.331,123.955,199.531,123.955z M206.645,132.083c-0.8,0-1.452-0.65-1.452-1.452
				c0-0.8,0.652-1.45,1.452-1.45s1.45,0.65,1.45,1.45C208.095,131.433,207.444,132.083,206.645,132.083z M206.645,123.955
				c-0.8,0-1.452-0.649-1.452-1.453c0-0.8,0.652-1.449,1.452-1.449s1.45,0.649,1.45,1.449
				C208.095,123.306,207.444,123.955,206.645,123.955z"/>
		</g>
		<g>
			<g>
				<path fill="#9D2E24" d="M165.277,124.136c4.786,0,8.679,3.893,8.679,8.679c0,4.787-3.894,8.682-8.679,8.682
					c-4.787,0-8.681-3.896-8.681-8.682C156.596,128.029,160.49,124.136,165.277,124.136z M165.277,137.912
					c2.808,0,5.093-2.288,5.093-5.098c0-2.808-2.285-5.094-5.093-5.094c-2.811,0-5.096,2.286-5.096,5.094
					C160.181,135.625,162.466,137.912,165.277,137.912z"/>
			</g>
		</g>
		<g>
			<g>
				<path fill="#9D2E24" d="M304.219,63.962c4.787,0,8.681,3.894,8.681,8.68c0,4.789-3.894,8.681-8.681,8.681
					c-4.786,0-8.681-3.893-8.681-8.681C295.538,67.856,299.433,63.962,304.219,63.962z M304.219,77.739
					c2.81,0,5.094-2.286,5.094-5.097c0-2.809-2.284-5.094-5.094-5.094c-2.809,0-5.094,2.285-5.094,5.094
					C299.125,75.453,301.41,77.739,304.219,77.739z"/>
			</g>
		</g>
		<g>
			<defs>
				<rect id="SVGID_3_" x="160.176" y="63.874" width="125.544" height="42.105"/>
			</defs>
			<use xlink:href="#SVGID_3_"  overflow="visible" fill="#919191"/>
			<clipPath id="SVGID_4_">
				<use xlink:href="#SVGID_3_"  overflow="visible"/>
			</clipPath>
			<rect x="160.176" y="63.874" clip-path="url(#SVGID_4_)" fill="#919191" width="125.544" height="42.107"/>
		</g>
		<g>
			<path fill="#FFFFFF" d="M280.471,74.863l0.94-4.528l1.207-1l1.205,1.5l-2.557,12.054l-1.793,1.5l-1.207-1.5l1.5-7.026
				L280.471,74.863z M269.034,67.336h12.025l1.205,1.501l-1.853,1.499h-12.024l-1.175-1.499L269.034,67.336z M279.206,85.388
				l1.207,1.529l-2.558,12.025l-1.794,1.5l-0.823-1l0.972-4.498l-0.295-0.999l1.5-7.028L279.206,85.388z M262.213,99.442h12.024
				l1.206,1.5l-1.853,1.528h-12.054l-1.147-1.528L262.213,99.442z M266.565,69.336l0.792,1l-0.94,4.528l0.294,1l-1.499,7.026
				l-1.795,1.5l-1.204-1.5l2.558-12.054L266.565,69.336z M263.153,85.388l1.207,1.529l-1.5,7.028l-0.705,0.999l-0.969,4.498
				l-1.177,1l-1.205-1.5l2.558-12.025L263.153,85.388z"/>
			<path fill="#FFFFFF" d="M249.728,74.863l0.94-4.528l1.205-1l1.205,1.5l-2.557,12.054l-1.792,1.5l-1.207-1.5l1.501-7.026
				L249.728,74.863z M238.291,67.336h12.024l1.206,1.501l-1.853,1.499h-12.025l-1.176-1.499L238.291,67.336z M248.462,85.388
				l1.206,1.529l-2.558,12.025l-1.794,1.5l-0.823-1l0.971-4.498l-0.294-0.999l1.5-7.028L248.462,85.388z M231.469,99.442h12.025
				l1.206,1.5l-1.853,1.528h-12.055l-1.146-1.528L231.469,99.442z M235.82,69.336l0.794,1l-0.941,4.528l0.293,1l-1.498,7.026
				l-1.794,1.5l-1.205-1.5l2.557-12.054L235.82,69.336z M232.41,85.388l1.205,1.529l-1.5,7.028l-0.705,0.999l-0.971,4.498l-1.175,1
				l-1.207-1.5l2.559-12.025L232.41,85.388z"/>
			<path fill="#FFFFFF" d="M215.384,74.863l0.94-4.528l1.205-1l1.206,1.5l-2.558,12.054l-1.793,1.5l-1.206-1.5l1.5-7.026
				L215.384,74.863z M203.946,67.336h12.025l1.207,1.501l-1.853,1.499h-12.025l-1.176-1.499L203.946,67.336z M214.118,85.388
				l1.207,1.529l-2.559,12.025l-1.794,1.5l-0.822-1l0.971-4.498l-0.294-0.999l1.5-7.028L214.118,85.388z M197.125,99.442h12.025
				l1.206,1.5l-1.852,1.528h-12.056l-1.146-1.528L197.125,99.442z M201.477,69.336l0.793,1l-0.941,4.528l0.293,1l-1.498,7.026
				l-1.794,1.5l-1.205-1.5l2.558-12.054L201.477,69.336z M198.067,85.388l1.206,1.529l-1.5,7.028l-0.706,0.999l-0.97,4.498l-1.176,1
				l-1.206-1.5l2.558-12.025L198.067,85.388z"/>
			<path fill="#FFFFFF" d="M184.64,74.863l0.94-4.528l1.206-1l1.205,1.5l-2.557,12.054l-1.792,1.5l-1.206-1.5l1.499-7.026
				L184.64,74.863z M173.203,67.336h12.023l1.207,1.501l-1.852,1.499h-12.024l-1.177-1.499L173.203,67.336z M183.374,85.388
				l1.207,1.529l-2.559,12.025l-1.793,1.5l-0.822-1l0.969-4.498l-0.295-0.999l1.5-7.028L183.374,85.388z M166.381,99.442h12.026
				l1.206,1.5l-1.853,1.528h-12.055l-1.146-1.528L166.381,99.442z M170.733,69.336l0.793,1l-0.94,4.528l0.293,1l-1.498,7.026
				l-1.795,1.5l-1.206-1.5l2.558-12.054L170.733,69.336z M167.321,85.388l1.206,1.529l-1.5,7.028l-0.705,0.999l-0.97,4.498l-1.176,1
				l-1.206-1.5l2.559-12.025L167.321,85.388z"/>
			<circle fill="#FFFFFF" cx="262.349" cy="68.837" r="1.7"/>
			<circle fill="#FFFFFF" cx="231.692" cy="68.837" r="1.701"/>
			<circle fill="#FFFFFF" cx="223.798" cy="78.08" r="1.7"/>
			<circle fill="#FFFFFF" cx="221.011" cy="91.939" r="1.701"/>
			<circle fill="#FFFFFF" cx="189.505" cy="100.77" r="1.701"/>
			<circle fill="#FFFFFF" cx="197.218" cy="68.837" r="1.701"/>
			<circle fill="#FFFFFF" cx="166.223" cy="68.837" r="1.701"/>
		</g>
		<path fill="#B1D577" d="M310.979,129.283c0,4.55-3.7,8.248-8.249,8.248c-4.548,0-8.251-3.698-8.251-8.248s3.703-8.25,8.251-8.25
			C307.279,121.033,310.979,124.733,310.979,129.283z"/>
	</g>
</g>
<g id="Layer_3" display="none">
	<g display="inline">
		<g>
			<polygon fill="#C9C9C9" points="326.906,237.793 326.906,233.958 323.084,233.958 323.084,219.829 326.906,219.829 
				326.906,215.994 361.21,215.994 361.21,219.829 365.032,219.829 365.032,233.958 361.21,233.958 361.21,237.793 			"/>
			<rect x="326.906" y="217.87" fill="#E4E7E1" width="34.304" height="18.046"/>
			<rect x="329.751" y="223.131" fill="#C9C9C9" width="7.187" height="7.522"/>
			<rect x="351.364" y="223.131" fill="#C9C9C9" width="7.187" height="7.522"/>
		</g>
		<g>
			<g>
				<polygon fill="#C9C9C9" points="460.829,109.461 460.829,105.626 457.007,105.626 457.007,91.496 460.829,91.496 
					460.829,87.661 495.133,87.661 495.133,91.496 498.955,91.496 498.955,105.626 495.133,105.626 495.133,109.461 				"/>
				<rect x="460.829" y="89.538" fill="#E4E7E1" width="34.305" height="18.045"/>
				<rect x="463.674" y="94.796" fill="#C9C9C9" width="7.188" height="7.527"/>
				<rect x="485.288" y="94.796" fill="#C9C9C9" width="7.186" height="7.527"/>
			</g>
		</g>
		<path fill="#E4E7E1" d="M459.787,178.47l-98.581-0.073v37.597h-34.301V166c0-22.83,21.839-21.84,21.839-21.84h25.243v-0.001
			l86.842,0.072v-34.771h34.302v47.168c0,22.83-21.839,21.841-21.839,21.841H459.787L459.787,178.47z"/>
		<g>
			<path fill="#DBDBDB" d="M472.768,167.907c12.502,0,12.12-12.276,12.12-12.276v-46.17h4.553v46.17c0,0,1.292,16.829-16.672,16.829
				l-117.411-0.073v43.608h-4.553v-48.16L472.768,167.907z"/>
			<path fill="#DBDBDB" d="M349.267,158.729l123.501,0.073c3.227,0,3.015-3.17,3.015-3.17v-46.17h4.553v46.17
				c0,0,0.213,7.723-7.568,7.723l-123.501-0.073c-3.226,0-3.015,3.17-3.015,3.17v49.543h-4.553v-49.543
				C341.699,166.451,341.485,158.729,349.267,158.729z"/>
			<path fill="#DBDBDB" d="M332.593,166.451c0,0-1.292-16.828,16.674-16.828l117.41,0.074v-40.236h4.553v44.787l-121.963-0.072
				c-12.502,0-12.12,12.275-12.12,12.275v49.543h-4.554V166.451z"/>
		</g>
	</g>
	<g display="inline">
		<g>
			<rect x="420.337" y="249.436" fill="#E4E7E1" width="100.573" height="34.303"/>
			<rect x="420.337" y="264.597" fill="#DBDBDB" width="100.573" height="3.979"/>
			<rect x="420.337" y="256.029" fill="#DBDBDB" width="100.573" height="3.979"/>
			<rect x="420.337" y="273.894" fill="#DBDBDB" width="100.573" height="3.979"/>
		</g>
		<g>
			<polygon fill="#C9C9C9" points="520.91,249.436 524.745,249.436 524.745,245.613 538.875,245.613 538.875,249.436 
				542.71,249.436 542.71,283.739 538.875,283.739 538.875,287.562 524.745,287.562 524.745,283.739 520.91,283.739 			"/>
			<rect x="522.789" y="249.436" fill="#E4E7E1" width="18.045" height="34.303"/>
			<rect x="528.048" y="252.282" fill="#C9C9C9" width="7.525" height="7.187"/>
			<rect x="528.048" y="273.894" fill="#C9C9C9" width="7.525" height="7.186"/>
		</g>
		<g>
			<polygon fill="#C9C9C9" points="420.337,283.739 416.502,283.739 416.502,287.562 402.371,287.562 402.371,283.739 
				398.539,283.739 398.539,249.436 402.371,249.436 402.371,245.613 416.502,245.613 416.502,249.436 420.337,249.436 			"/>
			<rect x="400.415" y="249.436" fill="#E4E7E1" width="18.044" height="34.303"/>
			<rect x="405.675" y="273.707" fill="#C9C9C9" width="7.524" height="7.187"/>
			<rect x="405.675" y="252.094" fill="#C9C9C9" width="7.524" height="7.188"/>
		</g>
	</g>
	<g display="inline">
		<g>
			<rect x="109.578" y="305.986" fill="#E4E7E1" width="100.574" height="34.303"/>
			<rect x="109.578" y="321.148" fill="#DBDBDB" width="100.574" height="3.979"/>
			<rect x="109.578" y="312.579" fill="#DBDBDB" width="100.574" height="3.981"/>
			<rect x="109.578" y="330.445" fill="#DBDBDB" width="100.574" height="3.979"/>
		</g>
		<g>
			<polygon fill="#C9C9C9" points="210.152,305.986 213.987,305.986 213.987,302.164 228.117,302.164 228.117,305.986 
				231.953,305.986 231.953,340.29 228.117,340.29 228.117,344.112 213.987,344.112 213.987,340.29 210.152,340.29 			"/>
			<rect x="212.029" y="305.986" fill="#E4E7E1" width="18.045" height="34.303"/>
			<rect x="217.29" y="308.833" fill="#C9C9C9" width="7.524" height="7.186"/>
			<rect x="217.29" y="330.445" fill="#C9C9C9" width="7.524" height="7.186"/>
		</g>
		<g>
			<polygon fill="#C9C9C9" points="109.578,340.29 105.743,340.29 105.743,344.112 91.614,344.112 91.614,340.29 87.779,340.29 
				87.779,305.986 91.614,305.986 91.614,302.164 105.743,302.164 105.743,305.986 109.578,305.986 			"/>
			<rect x="89.656" y="305.986" fill="#E4E7E1" width="18.045" height="34.303"/>
			<rect x="94.917" y="330.256" fill="#C9C9C9" width="7.524" height="7.187"/>
			<rect x="94.917" y="308.644" fill="#C9C9C9" width="7.524" height="7.188"/>
		</g>
	</g>
	<g display="inline">
		<g>
			<polygon fill="#C9C9C9" points="189.653,116.082 189.653,119.942 185.806,119.942 185.806,134.165 189.653,134.165 
				189.653,138.025 224.183,138.025 224.183,134.165 228.03,134.165 228.03,119.942 224.183,119.942 224.183,116.082 			"/>
			<rect x="189.653" y="117.973" fill="#E4E7E1" width="34.53" height="18.164"/>
			<rect x="192.518" y="123.268" fill="#C9C9C9" width="7.235" height="7.574"/>
			<rect x="214.271" y="123.268" fill="#C9C9C9" width="7.233" height="7.574"/>
		</g>
		<g>
			<g>
				<polygon fill="#C9C9C9" points="270.148,215.891 270.148,219.75 266.302,219.75 266.302,233.975 270.148,233.975 
					270.148,237.834 304.679,237.834 304.679,233.975 308.526,233.975 308.526,219.75 304.679,219.75 304.679,215.891 				"/>
				<rect x="270.148" y="217.781" fill="#E4E7E1" width="34.531" height="18.163"/>
				<rect x="273.014" y="223.075" fill="#C9C9C9" width="7.235" height="7.574"/>
				<rect x="294.768" y="223.075" fill="#C9C9C9" width="7.234" height="7.574"/>
			</g>
		</g>
		<g>
			<path fill="#E4E7E1" d="M269.1,155.815h-44.918v-17.791h-34.526v30.269c0,22.979,21.982,21.983,21.982,21.983h28.864l0,0h29.647
				v25.613h34.527V177.8c0-22.981-21.982-21.983-21.982-21.983H269.1V155.815z"/>
			<g>
				<path fill="#DBDBDB" d="M282.167,166.449c12.584,0,12.199,12.355,12.199,12.355v37.086h4.583v-37.086
					c0,0,1.299-16.938-16.783-16.938h-63.872v-23.841h-4.582v28.424H282.167z"/>
				<path fill="#DBDBDB" d="M212.164,175.614h70.002c3.248,0,3.034,3.19,3.034,3.19v37.086h4.583v-37.086
					c0,0,0.214-7.773-7.618-7.773h-70.002c-3.248,0-3.035-3.19-3.035-3.19v-29.815h-4.583v29.815
					C204.546,167.84,204.333,175.614,212.164,175.614z"/>
				<path fill="#DBDBDB" d="M195.383,167.84c0,0-1.302,16.938,16.781,16.938h63.872v31.112h4.583v-35.694h-68.455
					c-12.584,0-12.199-12.356-12.199-12.356v-29.815h-4.582V167.84z"/>
			</g>
		</g>
	</g>
	<g display="inline">
		<g>
			<polygon fill="#C9C9C9" points="420.392,362.446 416.531,362.446 416.531,358.598 402.308,358.598 402.308,362.446 
				398.449,362.446 398.449,396.975 402.308,396.975 402.308,400.822 416.531,400.822 416.531,396.975 420.392,396.975 			"/>
			<rect x="400.336" y="362.446" fill="#E4E7E1" width="18.166" height="34.529"/>
			<rect x="405.633" y="365.311" fill="#C9C9C9" width="7.573" height="7.232"/>
			<rect x="405.633" y="387.063" fill="#C9C9C9" width="7.573" height="7.235"/>
		</g>
		<g>
			<g>
				<polygon fill="#C9C9C9" points="511.471,490.31 511.471,494.169 507.625,494.169 507.625,508.391 511.471,508.391 
					511.471,512.252 546,512.252 546,508.391 549.846,508.391 549.846,494.169 546,494.169 546,490.31 				"/>
				<rect x="511.471" y="492.199" fill="#E4E7E1" width="34.53" height="18.163"/>
				<rect x="514.335" y="497.492" fill="#C9C9C9" width="7.234" height="7.577"/>
				<rect x="536.091" y="497.492" fill="#C9C9C9" width="7.232" height="7.577"/>
			</g>
		</g>
		<g>
			<path fill="#E4E7E1" d="M420.392,362.446h103.624c0,0,21.982-0.996,21.982,21.983V490.31h-34.527v-93.403h-91.079V362.446z"/>
			<polygon fill="#DBDBDB" points="521.939,490.31 517.357,490.31 517.357,391.407 420.392,391.407 420.392,386.825 
				521.939,386.825 			"/>
			<path fill="#DBDBDB" d="M531.106,385.434V490.31h-4.583V385.434c0,0,0.213-3.19-3.036-3.19H420.392v-4.583h103.096
				C531.319,377.66,531.106,385.434,531.106,385.434z"/>
			<path fill="#DBDBDB" d="M540.27,385.434V490.31h-4.582V385.434c0,0,0.384-12.356-12.201-12.356H420.392v-4.583h103.096
				C541.572,368.494,540.27,385.434,540.27,385.434z"/>
		</g>
	</g>
</g>
<g id="Layer_4">
	<g>
		<g>
			<rect x="420.218" y="249.559" fill="#C9C9C9" width="100.573" height="34.303"/>
			<rect x="420.218" y="264.72" fill="#E4E7E1" width="100.573" height="3.979"/>
			<rect x="420.218" y="256.152" fill="#E4E7E1" width="100.573" height="3.979"/>
			<rect x="420.218" y="274.017" fill="#E4E7E1" width="100.573" height="3.979"/>
		</g>
		<g>
			<polygon fill="#C9C9C9" points="520.792,249.559 524.626,249.559 524.626,245.736 538.756,245.736 538.756,249.559 
				542.591,249.559 542.591,283.862 538.756,283.862 538.756,287.685 524.626,287.685 524.626,283.862 520.792,283.862 			"/>
			<rect x="522.67" y="249.559" fill="#E4E7E1" width="18.045" height="34.303"/>
			<rect x="527.929" y="252.405" fill="#C9C9C9" width="7.525" height="7.187"/>
			<rect x="527.929" y="274.017" fill="#C9C9C9" width="7.525" height="7.186"/>
		</g>
		<g>
			<polygon fill="#C9C9C9" points="420.218,283.862 416.383,283.862 416.383,287.685 402.252,287.685 402.252,283.862 
				398.42,283.862 398.42,249.559 402.252,249.559 402.252,245.736 416.383,245.736 416.383,249.559 420.218,249.559 			"/>
			<rect x="400.296" y="249.559" fill="#E4E7E1" width="18.044" height="34.303"/>
			<rect x="405.556" y="273.83" fill="#C9C9C9" width="7.524" height="7.187"/>
			<rect x="405.556" y="252.217" fill="#C9C9C9" width="7.524" height="7.188"/>
		</g>
	</g>
</g>
</svg>
